{
    "entries": {
        "Adventure Paths": "Campagnes",
        "Bestiaries": "Bestiaires",
        "Character Building": "Construction de personnage",
        "Effects": "Effets",
        "GM Tools": "Outils de MJ",
        "Journals": "Journaux",
        "Macros": "Macros",
        "Pathfinder Society": "Société des Éclaireurs",
        "Pregenerated PCs": "PJ prétirés",
        "Rulebooks": "Livres de règles",
        "Standalone Adventures": "Aventures"
    }
}