{
    "label": "Constructs (Animal Companions)",
    "entries": {
        "Prototype Construct": {
            "name": "Prototype créature artificielle (Prototype Construct)"
        },
        "Megaton Strike (CC)": {
            "name": "Frappe mégatonne (CC) (Megaton Strike (CC))"
        },
        "Unarmed Strike 1": {
            "name": "Frappe à mains nues 1 (Unarmed Strike 1)"
        },
        "Paragon Construct (CC)": {
            "name": "Parangon créature artificielle (CC) (Paragon Construct (CC))"
        },
        "Incredible Construct (CC)": {
            "name": "Créature artificielle incroyable (CC) (Incredible Construct (CC))"
        },
        "Unarmed Strike 2": {
            "name": "Frappe à mains nues 2 (Unarmed Strike 2)"
        },
        "Advanced Construct (CC)": {
            "name": "Créature artificielle avancée (CC) (Advanced Construct (CC))"
        }
    },
    "mapping": {
        "description": "system.details.publicNotes",
        "gm": "system.details.privateNotes",
        "blurb": "system.details.blurb",
        "cadetails": "system.attributes.ac.details",
        "hpdetails": "system.attributes.hp.details",
        "languages": "system.details.languages.details",
        "perception": "system.perception.details",
        "saves": "system.attributes.allSaves.value",
        "speeds": "system.attributes.speed.details",
        "desc (hazard)": "system.details.description",
        "disable": "system.details.disable",
        "reset": "system.details.reset",
        "routine": "system.details.routine",
        "stealth": "system.attributes.stealth.details",
        "target": "system.target.value",
        "items": {
            "path": "items",
            "converter": "translateActorItems"
        }
    }
}