{
    "label": "Manœuvres avancées (Animal Companions)",
    "entries": {
        "Float": {
            "name": "Flottement (Float)",
            "description": "<p><strong>Déclencheur</strong> Le champignon parapluie est en train de tomber.</p>\n<hr />\n<p>Le champignon parapluie remplit des poches d'air et commence à tournoyer pour ralentir sa chute. Il descend lentement de 18 m par round. Il peut utiliser cette réaction même s'il est @UUID[Compendium.pf2e.conditionitems.Item.fBnFDH2MTzgFijKf]{Inconscient}.</p>"
        },
        "Weighted Kick": {
            "name": "Ruade lestée (Weighted Kick)",
            "description": "<p>Votre augdunar donne une lourde ruade avec ses pattes arrière, transmettant le poids de son fardeau sur la cible. Il effectue un coup de sabot. Sur un coup réussi, l'augdunar repousse automatiquement la cible de 1,5 mètre (3 mètres sur un coup critique).</p>"
        },
        "Lurching Rush": {
            "name": "Embardée ruante (Lurching Rush)",
            "description": "<p>Le varan Marche rapidement puis fait une Frappe de mâchoires. S'il a bougé d'au moins 6 m de sa position de départ, il obtient un bonus de circonstances de +2 au jet d'attaque.</p>"
        },
        "Boar Charge": {
            "name": "Charge du sanglier (Boar Charge)",
            "description": "<p>Le sanglier Marche rapidement deux fois en ligne droite puis porte une Frappe de défense. Tant qu'il s'est déplacé d'au moins 6 m, il obtient un bonus de circonstances de +2 à son jet d'attaque.</p>"
        },
        "Death Roll": {
            "name": "Roulade mortelle (Death Roll)",
            "description": "<p><strong>Conditions</strong> Le crocodile a @UUID[Compendium.pf2e.conditionitems.Item.kWc1fhmv9LBiTuei]{Empoigné/agrippé} une créature.</p>\n<hr />\n<p>Le crocodile rentre ses pattes et roule rapidement, en tordant sa victime. Il effectue une Frappe de mâchoire avec un bonus de circonstances de +2 au jet d'attaque contre la créature agrippée. S'il touche, il met également la créature @UUID[Compendium.pf2e.conditionitems.Item.j91X7x0XSomq8d60]{À terre}. S'il rate, il libère la créature.</p>"
        },
        "Pick at the Meat": {
            "name": "Piquer la viande (Pick at the Meat)",
            "description": "<p><strong>Conditions</strong> La dernière action du compagnon animal était une Frappe de mâchoires réussie.</p>\n<hr />\n<p>Votre oiseau pique dans la plaie qu'il a juste créée. La cible de sa Frappe de mâchoires subit [[/r 1d8[bleed]]]{1d8 dégâts de saignement} ou [[/r 2d8[bleed]]]{2d8 dégâts de saignement} si l'oiseau est spécialisé.</p>"
        },
        "Screaming Skull": {
            "name": "Crâne hurlant (Screaming Skull)",
            "description": "<p>Le squelette ôte son propre crâne et le lance, faisant une Frappe de mâchoires avec une portée de 6 mètres. Qu'il touche ou non, la cible et tous les ennemis dans les 3 m doivent tenter un jet de Volonté ou être @UUID[Compendium.pf2e.conditionitems.Item.TBSHQspnbcqxsmjL]{Effrayées 1} ou @UUID[Compendium.pf2e.conditionitems.Item.TBSHQspnbcqxsmjL]{Effrayées 2} en cas de coup critique. cela utilise un DD qualifié en utilisant le modificateur de Charisme du squelette ou un DD expert si le squelette est spécialisé. Au début du prochain tour du squalette, la tête rebondit roule ou revient en volant pour se refixer. Le squelette est aveugle tant que sa tête est à distance.</p>"
        },
        "Gulp Blood": {
            "name": "Gorgée de sang (Gulp Blood)",
            "description": "<p><strong>Conditions</strong> La dernière action de l'âme-en-peine aquatique était une attaque de mâchoires réussie contre un ennemi</p>\n<hr>\n<p>L'âme-en-peine aquatique obtient [[/r 2d8 #Points de vie temporaires]]{2d8 Points de vie temporaires} qui durent pendant 1 round et l'adversaire subit [[/r 2d6[bleed]]]{2d6 dégâts de saignement}. Si l'âme-en-peine aquatique est spécialisée, l'âme-en-peine aquatique obtient à la place [[/r 3d8 #Points de vie temporaires]]{3d8 Points de vie persistants} et la cible subit [[/r 3d6[bleed]]]{3d6 dégâts de saignement}. Si la créature ciblée n'a aucun fluide vital, cette capacité pourrait ne pas fonctionner, à la discrétion du MJ.</p>"
        },
        "Snatch": {
            "name": "Saisir au vol (Snatch)",
            "description": "<p>Le roc Frappe une créature avec ses serres puis tente de l'Agripper. Si l'Agrippement est un succès, le roc Vole jusqu'à la moitié de sa vitesse, emportant la créature avec lui.</p>"
        },
        "Sudden Retreat": {
            "name": "Retraite soudaine (Sudden Retreat)",
            "description": "<p>L'hippocampe effectue une Frappe de queue, puis Nage avec un bonus de circonstances de +3 m à sa Vitesse de nage. L'hippocampe et son cavalier bénéficient d'un bonus de circonstances de +2 à leur CA contre les réactions déclenchées par ce déplacement.</p>"
        },
        "Tongue Pull": {
            "name": "Traction de la langue (Tongue Pull)",
            "description": "<p>Le gecko des cavernes fait claquer sa langue et tente d'attirer vers lui un ennemi se trouvant dans un rayon de 3 mètres. Le gecko fait un test d'Athlétisme contre le DD de Vigueur de l'adversaire. S'il réussit, le gecko des cavernes tire l'ennemi à côté de lui. Ce mouvement est un déplacement forcé. En cas de succès critique, l'ennemi est également @UUID[Compendium.pf2e.conditionitems.Item.kWc1fhmv9LBiTuei]{Saisi} jusqu'au début de votre prochain tour.</p>"
        },
        "Cat Pounce": {
            "name": "Bond du félin (Cat Pounce)",
            "description": "<p>Le félin Marche rapidement puis Frappe. S'il était non détecté au début de son bond du félin, il reste non détecté jusqu'à ce qu'il ait porté l'attaque.</p>"
        },
        "Careful Withdraw": {
            "name": "Retrait précautionneux (Careful Withdraw)",
            "description": "<p>La chaise sur pattes vous extirpe précautionneusement d'une situation dangereuse. Elle Fait un pas deux fois puis Marche rapidement.</p>"
        },
        "Long Stomp": {
            "name": "Longue cavalcade (Long Stomp)",
            "description": "<p>Votre girafe Marche rapidement deux fois et effectue une frappe de sabot. Si elle s'est déplacée d'au moins 6 m, elle inflige @Damage[1d6[bludgeoning]]{1d6 dégâts contondants} supplémentaires. Les dégâts passent à @Damage[2d6[bludgeoning]]{2d6 dégâts contondants} si votre girafe est spécialisée.</p>"
        },
        "Breach": {
            "name": "Brèche (Breach)",
            "description": "<p>L'orque nage jusqu'à sa Vitesse de nage, puis bondit hors de l'eau jusqu'à 7,5 m dans les airs, effectuant une Frappe contre une créature à tout moment lors de son saut (ça lui permet donc d'atteindre une cible qui se trouverait à 9 m de la surface de l'eau). Après sa Frappe, l'orque replonge dans l'eau.</p>"
        },
        "Scurry": {
            "name": "S'empresser (Scurry)",
            "description": "<p>Votre chetamog accomplit n'importe quelle combinaison de deux actions Marcher rapidement ou Grimper. Il obtient un bonus de circonstances de +3m à sa Vitesse au cours de ces Marches rapides.</p>"
        },
        "Telepathic Pounce": {
            "name": "Assaut télépathique (Telepathic Pounce)",
            "description": "<p>Le shotalashu chasse en épinglant ses adversaires, pas seulement avec ses griffes, mais aussi avec son esprit. Une créature dans les 9 m doit tenter un jet de Volonté avec les effets suivants. Ce jet utilise un DD Qualifié en utilisant le modificateur de Charisme du shotalashu ou un DD Expert s'il est spécialisé.</p>\n<hr />\n<p><strong>Succès critique</strong> La créature n'est pas affectée.</p>\n<p><strong>Succès</strong> La créature subit une pénalité de statut à sa vitesse de -1,5 m pour un tour.</p>\n<p><strong>Échec</strong> La créature subit une pénalité de statut à sa vitesse de -3 m pour un tour. Le shotalashu peut alors @UUID[Compendium.pf2e.actionspf2e.Item.d5I6018Mci2SWokk]{Bondir}.</p>\n<p><strong>Échec critique</strong> La créature est @UUID[Compendium.pf2e.conditionitems.Item.AJh5ex99aV6VTggg]{Prise au dépourvu} et @UUID[Compendium.pf2e.conditionitems.Item.eIcWbB5o3pP6OIMe]{Immobilisée} pendant un tour. Le shotalashu peut alors Bondir.</p>"
        },
        "Wing Thrash": {
            "name": "Balayage d'aile (Wing Thrash)",
            "description": "<p>La chauve-souris frappe violemment et sauvagement avec ses ailes, effectuant des Frappes d'ailes contre un maximum de trois ennemis adjacents. Chaque attaque compte dans la pénalité d'attaques multiples de la chauve-souris mais la pénalité n'augmente qu'après avoir effectué toutes les attaques.</p>"
        },
        "Grabbing Trunk": {
            "name": "Trompe préhensile (Grabbing Trunk)",
            "description": "<p>L'éléphant agrippe son ennemi avec sa trompe et le transporte. L'éléphant utilise Athlétisme pour @UUID[Compendium.pf2e.actionspf2e.Item.Grapple]{Saisir} une créature de deux tailles plus petites que celle de l'éléphant dans sa trompe. Si sa cible est @UUID[Compendium.pf2e.conditionitems.Item.kWc1fhmv9LBiTuei]{Empoignée/agrippée} ou @UUID[Compendium.pf2e.conditionitems.Item.Restrained]{Entravée}, l'éléphant la repositionne dans un autre espace à sa portée.</p>"
        },
        "Seedpod Spring": {
            "name": "Éclosion printanière (Seedpod Spring)",
            "description": "<p>Une gousse dans le fauteuil éclot et se déploie, en libérant une touffe légère de matière cotonneuse. Votre Fauteuil motte de racines Bondit de 9 mètres verticalement ou horizontalement et dérive vers le bas, descendant de 1,5 m pour chaque 1,5 mètre parcourus horizontalement et vous ne subissez aucun dégât de chute. La matière cotonneuse se disperse au moment de l'atterrissage.</p>"
        },
        "Hair Barrage": {
            "name": "Déluge velu (Hair Barrage)",
            "description": "<p>La tarentule, d'une pichenette de ses pattes, projette des poils acérés dans un @Template[type:cone|distance:15]. Ceci inflige @Damage[4d6[piercing]] de dégâts avec un @Check[type:reflex|dc:resolve(@actor.system.attributes.classDC.value)|basic:true] contre votre DD de classe. Ces dégâts sont augmentés de 1d6 supplémentaire pour chaque 4 niveaux que vous avez au delà du 6ème. </p>"
        },
        "Knockdown": {
            "name": "Renversement (Knockdown)",
            "description": "<p><strong>Conditions</strong> La dernière action du compagnon animal était une attaque réussie de mâchoires.</p>\n<hr />\n<p>Le loup renverse automatiquement la cible de sa Frappe de mâchoire @UUID[Compendium.pf2e.conditionitems.Item.j91X7x0XSomq8d60]{À terre}.</p>"
        },
        "Poisonous Sweep": {
            "name": "Balayage empoisonné (Poisonous Sweep)",
            "description": "<p>La salamandre sécrète du poison par des glandes sur sa queue et matraque un ennemi pour l'en enduire. Il fait une Frappe de queue. Si cette Frappe touche, la cible subit @Damage[1d6[persistent,poison]]{1d6 de dégâts de poison persistent} supplémentaires. Si votre salamandre est agile ou sauvage, ces dégâts passent à @Damage[2d6[persistent,poison]{2d6 de dégâts de poison persistent}.</p>"
        },
        "Flyby Attack": {
            "name": "Attaque en vol (Flyby Attack)",
            "description": "<p>L'oiseau de proie Vole et porte une Frappe de serre à n'importe quel moment.</p>"
        },
        "Spiked Bunker": {
            "name": "Bunker pointu (Spiked Bunker)",
            "description": "<p>Votre élémentaire de métal s'entoure de piques de métal protectrices et se met sur la défensive. Il bénéficie d'un bonus de circonstances de +2 à la CA. Toute créature qui touche l'élémentaire de métal avec une attaque au corps-à-corps à mains nues alors qu'il est dans son bunker pointu subit @Damage[2d6[piercing]]{2 dégâts perforants} (ou @Damage[3d6[piercing]]{3d6 dégâts perforants} si votre élémentaire de métal est spécialisé). L'élémentaire de métal ne peut pas se déplacer, Frapper ou entreprendre d'autres actions nécessitant l'utilisation de son corps tant qu'il est dans son Bunker pointu mais il peut rétracter le bunker par une action unique, ce qui met un terme à ses effets.</p>"
        },
        "Snatch and Zap": {
            "name": "Saisir et électrocuter (Snatch and Zap)",
            "description": "<p>L'Ulgrem-Lurann mord fort et libère une décharge électrique. Il porte une Frappe de mâchoires. Si la Frappe touche, la créature cible devient automatiquement @UUID[Compendium.pf2e.conditionitems.Item.kWc1fhmv9LBiTuei]{Agrippée/Empoignée} par l'Ulgrem-Lurann et subit [[/r 1d4[electricity]]]{1d4 dégâts d'électricité} ([[/r 2d4[electricity]]]{dégâts d'électricité} pour un Ulgrem-Lurann adulte ou [[/r 3d4[electricity]]]{3d4 dégâts d'électricité} pour un compagnon spécialisé). L'état Agrippé/Empoigné persiste jusqu'à la fin de votre prochain tour, bien que l'Ulgrem-Lurann puisse utiliser @UUID[Compendium.pf2e.actionspf2e.Item.PMbdMWc2QroouFGD]{Saisir} pour tenter d'étendre sa durée comme à l'ordinaire.</p>"
        },
        "Spring Kick": {
            "name": "Ruade bondissante (Spring Kick)",
            "description": "<p>Le kangourou prend équilibre sur sa queue et déclenche une puissante ruade à l'aide de ses deux pieds. S'il touche, la cible est repoussée de 3 m. Sur un coup critique, elle est aussi mise @UUID[Compendium.pf2e.conditionitems.Item.j91X7x0XSomq8d60]{A terre}.</p>"
        },
        "Tearing Clutch": {
            "name": "Serrage déchirant (Tearing Clutch)",
            "description": "<p>L'oiseau de terreur fait une Frappe de bec. En cas de coup réussi, la cible subit [[/r 2d6[bleed]]]{2d6 dégâts de saignement}.</p>"
        },
        "Telekinetic Assault": {
            "name": "Assaut télékinésique (Telekinetic Assault)",
            "description": "<p><strong>Fréquence</strong> Une fois par heure</p>\n<hr />\n<p>Votre fantôme relâche un déluge d'émotions, faisant voler de petits objets et des débris dans une @Template[type:emanation|distance:20]{émanation de 6 mètres}, en infligeant @Damage[1d6[bludgeoning]]{1d6 dégâts contondants} par tranche de 2 niveau que le fantôme possède (Réflexes basique). Cela utilise un DD qualifié en utilisant le modificateur de Charisme du fantôme ou un DD expert si le fantôme est spécialisé.</p>"
        },
        "Feast on the Fallen": {
            "name": "Festin sur le déchu (Feast on the Fallen)",
            "description": "<p><strong>Fréquence</strong> Une fois par heure</p>\n<p><strong>Déclencheur</strong> Une créature adjacente au vautour est réduite à 0 PV</p>\n<hr />\n<p>Le vauture avale un morceau de l'ennemi défait, regagnant [[/r 18]] Points de Vie. Si le vautour est un compagnon animal spécialisé, agumentez les Points de Vie regagnés à [[/r 30]].</p>"
        },
        "Burrowing Ambush": {
            "name": "Embuscade souterraine (Burrowing Ambush)",
            "description": "<p>Votre taupe Creuse et effectue une Frappe. Si la taupe a commencé son déplacement sous terre, la cible est @UUID[Compendium.pf2e.conditionitems.Item.AJh5ex99aV6VTggg]{Prise au dépourvu} pour cette attaque.</p>"
        },
        "Overwhelm": {
            "name": "Prise de mâchoire (Overwhelm)",
            "description": "<p>Le tyrannosaure s'abat sur un ennemi et l'immobilise dans ses mâchoires. Le tyrannosaure tente une Frappe de mâchoires. Si elle touche, la cible est @UUID[Compendium.pf2e.conditionitems.Item.kWc1fhmv9LBiTuei]{Saisie}.</p>"
        },
        "Defensive Curl": {
            "name": "Posture défensive (Defensive Curl)",
            "description": "<p>Le pangolin se roule en boule pour se défendre. Il bénéficie d'un bonus de circonstances de +2 à la CA. Toute créature qui touche le pangolin avec une attaque au corps-à-corps à mains nues alors qu'il est dans sa Posture défensive subit @Damage[2d6[bleed]]{2d6 dégâts de saignement}. Le pangolin ne peut se déplacer, utiliser cette attaque à mains nues ou effectuer d'autres actions qui nécessitent d'utiliser ses membres lorsqu'il est en Posture défensive, mais il peut se déployer en une seule action, mettant fin aux effets de la Posture défensive.</p>"
        },
        "Bear Hug": {
            "name": "Étreinte de l'ours (Bear Hug)",
            "description": "<p><strong>Conditions</strong> La dernière action de l'ours était une Frappe de griffe réussie.</p>\n<hr />\n<p>L'ours porte une autre Frappe de griffe sur la même cible. Si cette Frappe touche, la cible est aussi @UUID[Compendium.pf2e.conditionitems.Item.kWc1fhmv9LBiTuei]{Agrippée}, comme si l'ours avait réussi à Saisir la cible.</p>"
        },
        "Gnaw": {
            "name": "Ronger (Gnaw)",
            "description": "<p><strong>Conditions</strong> La dernière action du compagnon animal était une Frappe de mâchoires réussie.</p>\n<hr />\n<p>La cible de la Frappe subit [[/r 1d6[bleed]]]{1d6 dégâts de saignement} et subit une pénalité de -3 m à ses Vitesses jusqu'à ce qu'elle mette fin aux dégâts de saignement. Si la hyène est un compagnon animal spécialisé, les dégâts de saignement passent à 2d6.</p>"
        },
        "Tongue Grab": {
            "name": "Langue gluante (Tongue Grab)",
            "description": "<p>La grenouille géante projette sa langue et effectue une Frappe de langue. Si la Frappe touche, la cible est automatiquement @UUID[Compendium.pf2e.conditionitems.Item.kWc1fhmv9LBiTuei]{Agrippée} par la grenouille géante et attirée dans une  case adjacente à la grenouille. L'état Agrippé dure jusqu'à la fin de votre prochain tour.</p>"
        },
        "Rolling Knockdown": {
            "name": "Roulade renversante (Rolling Knockdown)",
            "description": "<p>Votre élémentaire de terre roule sur le sol comme une boule de bowling et renverse un ennemi. Il Marche rapidement sur une distance de 3 mètres puis porte une Frappe de poing. S'il touche, la cible est également @UUID[Compendium.pf2e.conditionitems.Item.j91X7x0XSomq8d60]{À terre}.</p>"
        },
        "Bounding Retreat": {
            "name": "Retraite bondissante (Bounding Retreat)",
            "description": "<p>L'antilope Bondit deux fois. Si elle a un cavalier, elle peut le laisser dans un espace inoccupé quand elle Bondit hors de celui-ci.</p>"
        },
        "Take a Taste": {
            "name": "Goûte un morceau (Take a Taste)",
            "description": "<p><strong>Conditions</strong> Le zombie a @UUID[Compendium.pf2e.conditionitems.Item.kWc1fhmv9LBiTuei]{Empoigné} ou @UUID[Compendium.pf2e.conditionitems.Item.VcDeM8A5oI6VqhbM]{Entravé} une créature.</p>\n<hr />\n<p>Le zombie essaie d'approcher et de mordre une créature. Le zombie fait une Frappe de mâchoires contre la créature. Cette Frappe utilise les mêmes caractéristiques que sa Frappe normale au corps-à-corps, sauf que ses dégâts sont de 1d10 et qu'elle inflige des dégâts perforants.</p>"
        },
        "Unnerving Screech": {
            "name": "Cri strident (Unnerving Screech)",
            "description": "<p>Votre oiseau de proie squelettique émet un cri strident, contre nature, qui rend sourd et fait sursauter un ennemi dans un rayon de 9 mètres. La cible doit tenter un jet de Vigueur. La cible est alors temporairement immunisée pendant 1 heure. L'état Effrayé est un effet mental, d'émotion et de peur, mais la créature peut toujours être @UUID[Compendium.pf2e.conditionitems.Item.9PR9y0bi4JPKnHPR]{Assourdie} si elle est immunisée contre de tels effets.</p>\n<hr />\n<p><strong>Succès critique</strong> La cible n'est pas affectée.</p>\n<p><strong>Succès</strong> La cible est Sourde pendant 1 round et @UUID[Compendium.pf2e.conditionitems.Item.TBSHQspnbcqxsmjL]{Effrayée 1}.</p>\n<p><strong>Échec</strong> La cible est Sourde pendant 1 minute et Effrayée 1.</p>\n<p><strong>Échec critique</strong> La cible est Sourde pendant 10 minutes et @UUID[Compendium.pf2e.conditionitems.Item.TBSHQspnbcqxsmjL]{Effrayée 2}.</p>"
        },
        "Knock Aside": {
            "name": "Pousser de côté (Knock Aside)",
            "description": "<p><strong>Conditions</strong> La dernière action du compagnon animal était une Frappe de coup de tête réussie</p>\n<hr />\n<p>La chèvre repousse automatiquement la cible en arrière de 1,5 m ou de 3 mètres si la Frappe critique était un coup critique.</p>"
        },
        "Ultrasonic Scream": {
            "name": "Cri ultrasonique (Ultrasonic Scream)",
            "description": "<p>Le papillon de nuit bat des ailes et émet des couinements ultrasoniques qui brouillent les sens des créatures proches. Choisissez une créature dans un rayon de 9 m autour du papillon de nuit. Cette créature doit tenter un jet de Vigueur. Elle doit utiliser le DD qualifié en utilisant le modificateur de Constitution du papillon ou un DD expert si le papillon est spécialisé.</p>\n<hr />\n<p><strong>Succès</strong> La cible traite toutes les créatures comme si elles étaient @UUID[Compendium.pf2e.conditionitems.Item.DmAIPqOBomZ7H95W]{Masquées} lors de sa prochaine attaque avant le début de votre prochain tour.</p>\n<p><strong>Échec</strong> La cible traite toutes les créatures comme si elles étaient @UUID[Compendium.pf2e.conditionitems.Item.DmAIPqOBomZ7H95W]{Masquées} jusqu'au début de votre prochain tour.</p>\n<p><strong>Échec critique</strong> Comme en cas d'échec et la cible est aussi @UUID[Compendium.pf2e.conditionitems.Item.dfCMdR4wnpbYNTix]{Étourdie 1}.</p>"
        },
        "Distracting Spray": {
            "name": "Aspersion distrayante (Distracting Spray)",
            "description": "<p>Le capybara asperge une cible adjacente avec ses glandes odorantes. La cible doit tenter un jet de Vigueur. Essuyer le musc prend une action Interagir et met fin à l'effet. Ceci utilise un DD qualifié en utilisant le modificateur de Constitution du capybara ou un DD expert si le capybara est spécialisé.</p>\n<hr />\n<p><strong>Succès critique</strong> La créature n'est pas affectée.</p>\n<p><strong>Succès</strong> La créature est @UUID[Compendium.pf2e.conditionitems.Item.i3OJZU2nk64Df3xm]{Maladroite 1} pendant 1 round.</p>\n<p><strong>Échec</strong> La créature est @UUID[Compendium.pf2e.conditionitems.Item.i3OJZU2nk64Df3xm]{Maladroite 1} pendant 1 minute.</p>\n<p><strong>Échec critique</strong> La créature est @UUID[Compendium.pf2e.conditionitems.Item.i3OJZU2nk64Df3xm]{Maladroite 2} pendant 1 minute.</p>"
        },
        "Bay": {
            "name": "Plainte (Bay)",
            "description": "<p>Le molosse d'ombre lâche une étrange plainte, en tentant de Démoraliser chaque ennemi dans une @Template[type:emanation|distance:5]{émanation de 6 m}. Ces tentatives de démoralisation ne nécessitent pas de parler la langue et elles ne subissent pas de la pénalité liée au fait de ne pas partager une langue.</p>"
        },
        "Bony Constriction": {
            "name": "Constriction osseuse (Bony Constriction)",
            "description": "<p><strong>Conditions</strong> Le serpent constricteur a @UUID[Compendium.pf2e.conditionitems.Item.kWc1fhmv9LBiTuei]{Agrippé} une créature.</p>\n<hr />\n<p>Le serpent squelette constricteur inflige @Damage[12[piercing]]]{12 dégâts perforants} à la créature agrippée avec ses côtes aiguisées. La créature doit tenter un jet de Vigueur basique. Si le serpent constricteur est un compagnon spécialisé passez ces dégâts à @Damage[20[piercing]]]{20}. Il faut utiliser le DD qualifié en utilisant le modificateur de Constitution du serpent constricteur ou un DD expert (@Check[type:fortitude|dc:resolve(14+@actor.level+@actor.abilities.con.mod)|basic:true]) si le serpent constricteur est spécialisé.</p>"
        },
        "Gallop": {
            "name": "Galop (Gallop)",
            "description": "<p>Le cheval Marche rapidement deux fois avec un bonus de circonstances de +3 m à sa Vitesse.</p>"
        },
        "Circling Flyby": {
            "name": "Vol circulaire (Circling Flyby)",
            "description": "<p>Votre élémentaire d'air vole en cercle, soufflant des rafales sur vos ennemis avant de revenir à sa position de départ. L'élémentaire d'air Vole sur la moitié de sa vitesse, effectue deux Frappes de rafale, puis Vole à nouveau sur la moitié de sa vitesse pour revenir à sa position initiale. Les deux attaques sont prises en compte compte pour le calcul de la pénalité d'attaques multiples de l'élémentaire d'air, mais la pénalité n'augmente qu'après avoir effectué les deux attaques.</p>"
        },
        "Extend Pseudopod": {
            "name": "Étendre un pseudopode (Extend Pseudopod)",
            "description": "<p>Votre fauteuil s'allonge lui-même, faisant bénéficier à sa Frappe de pseudopode du trait allonge 3 mètres jusqu'au début de votre prochain tour.</p>"
        },
        "Sand Stride": {
            "name": "Marche sur le sable (Sand Stride)",
            "description": "<p>Le chameau Marche rapidement deux fois avec un bonus de circonstances de +1,5 m à sa Vitesse, ignorant le terrain difficile provoqué par les débris, le sable et un sol inégal fait de pierre ou de terre.</p>"
        },
        "Flamethrower": {
            "name": "Lance-flammes (Flamethrower)",
            "description": "<p><strong>Fréquence</strong> une fois toutes les 10 minutes</p>\n<hr />\n<p>L'élémentaire de feu porte une Frappe de flamèche à toutes les créatures sur une @Template[type:line|distance:60]{ligne de 18 mètres}, même à celles qui ne sont pas dans l'allonge de la Frappe de flamèche. Toutes ses Frappes sont prises en compte pour déterminer la pénalité d'attaques multiples de l'élémentaire de feu, mais elle n'augmente pas avant d'avoir porté toutes les Frappes.</p>"
        },
        "Flying Strafe": {
            "name": "Frappes en vol (Flying Strafe)",
            "description": "<p>Le griffon Vole jusqu'à sa Vitesse de vol et effectue deux Frappes de serres sur le trajet, chacune sur une cible différente.</p>"
        },
        "Blood Feast": {
            "name": "Festin sanglant (Blood Feast)",
            "description": "<p>Votre compagnon animal vampirique attaque un ennemi qui saigne et boit son sang. Votre compagnon tente une Frappe contre une créature qui est en train de subir des dégâts de saignement. La Frappe inflige 2d8 dégâts supplémentaires. Si la Frappe touche et inflige des dégâts, votre compagnon animal vampirique obtient des points de vie temporaires égaux à la moitié de votre niveau qui persistent jusqu'à 1 minute.</p>"
        },
        "Rhinoceros Charge": {
            "name": "Charge du rhinocéros (Rhinoceros Charge)",
            "description": "<p>Le rhinocéros Marche rapidement deux fois puis effectue une Frappe de corne. Tant que le rhinocéros s'est déplacé d'au moins 6 mètres, la corne inflige 1d8 dégâts perforants supplémentaires ou 2d8 dégâts supplémentaires si votre rhinocéros est agile ou sauvage.</p>"
        },
        "Badger Rage": {
            "name": "Rage du blaireau (Badger Rage)",
            "description": "<p><strong>Conditions</strong> Le blaireau n'est pas fatigué ou en rage.</p>\n<hr />\n<p>@Compendium[pf2e-animal-companions.AC-Features.Kgt1NyBesS3rohzb]{Rage du blaireau}</p>\n<p>Le blaireau rentre dans un état de rage pure qui dure pendant 1 minute, jusqu'à ce qu'il n'y ait plus d'ennemis aux alentours qu'il puisse percevoir ou qu'il sombre dans l'inconscience selon de qui se produit en premier. Il ne peut cesser volontairement ssa rage. Lorsqu'il est enragé, le blaireau est affecté de la manière suivante.</p>\n<p>Il inflige 4 dégâts supplémentaires avec ses attaques de morsure et 2 dégâts supplémentaires avec ses attaques de griffe.</p>\n<p>Il subit une pénalité de -1 à la CA.</p>\n<p>Il ne peut utiliser d'action avec le trait concentration à moins qu'elle n'ait aussi le trait rage. Le compagnon animal peut Chercher même lorsqu'il est en rage.</p>\n<p>Lorsqu'il a mis un terme à sa rage, il ne peut utiliser Rage du blaireau de nouveau pendant 1 minute.</p>"
        },
        "Bouncing Slam": {
            "name": "Coup rebondissant (Bouncing Slam)",
            "description": "<p>Le gibtas Bondit sur une créature de taille Moyenne ou plus petite, atterrissant dans l'espace de la créature et @UUID[Compendium.pf2e.actionspf2e.Item.7blmbDrQFNfdT731]{Pousse} la créature. Si la Poussée échoue, le gibtas rebondit de la case de la cible vers une case adjacente au choix de la cible.</p>"
        },
        "Grabbing Branches": {
            "name": "Branches accrocheuses (Grabbing Branches)",
            "description": "<p>Votre élémentaire de bois entoure un ennemi de ses branches, le maintenant en place. Votre élémentaire de bois porte une Frappe de branche. En cas de succès, la cible est aussi @UUID[Compendium.pf2e.conditionitems.Item.kWc1fhmv9LBiTuei]{Agrippée} par l'élémentaire de bois jusqu'à la fin de votre prochain tour, à moins que votre élémentaire de bois ne se déplace ou que la cible ou que la cible s'échappe.</p>"
        },
        "Drench": {
            "name": "Tremper (Drench)",
            "description": "<p>Votre élémentaire d'eau trempe les feux à proximité pour les éteindre. Votre élémentaire éteint tous les feux dans une @Template[type:emanation|distance:5]{émanation de 1,5 mètre}. Il éteint automatiquement tous les feux non magiques et tente de contrer tous les feux magiques (son modificateur de contre est égal à son modificateur d'attaque avec sa Frappe de vague, non modifié par les bonus ou les effets qui s'appliquent aux jets d'attaques).</p>"
        },
        "Frightening Display": {
            "name": "Posture effrayante (Frightening Display)",
            "description": "<p>Votre singe fait une démonstration effrayante et bruyante, en surprenant un ennemi. Le pirmate essaie de @UUID[Compendium.pf2e.action-macros.Macro.nEwqNNWX6scLt4sc]{Démoraliser} la créature ciblée. Cette démonstration obtient le trait visuel et ne requiert aucune langue. Tant qu'elle est Effrayée par cette capacité, la cible est @UUID[Compendium.pf2e.conditionitems.Item.AJh5ex99aV6VTggg]{Prise au dépourvu} par votre primate.</p>"
        },
        "Darting Attack": {
            "name": "Attaque foudroyante (Darting Attack)",
            "description": "<p>Le raptor Fait un pas jusqu'à 3 m et puis Frappe ou Frappe puis Fait un pas jusqu'à 3 m.</p>"
        },
        "Liberating Bite": {
            "name": "Morsure libératrice (Liberating Bite)",
            "description": "<p>La mangouste effectue une Frappe de mâchoires qui peut aider une créature à sa libérer d'une étreinte, telle que l'emprise d'un cobra. Si la Frappe touche, chaque créature @UUID[Compendium.pf2e.conditionitems.Item.kWc1fhmv9LBiTuei]{Agrippée} ou @UUID[Compendium.pf2e.conditionitems.Item.VcDeM8A5oI6VqhbM]{Entravée} par la cible peut tenter de @UUID[Compendium.pf2e.actionspf2e.Item.SkZAQRkLLkmBQNB9]{S'échapper} par une action gratuite.</p>"
        },
        "Tail Swipe": {
            "name": "Coup de queue (Tail Swipe)",
            "description": "<p>Votre lézard de trait donne un coup avec sa queue, faisant des Frappes de queue contre deux ennemis adjacents aximum. Chaque attaque est décomptée de la pénalité d'attaques multiples du lézard de trait, mais la pénalité n'augmente pas avant d'avoir porté toutes les attaques.</p>"
        },
        "Lumbering Knockdown": {
            "name": "Renversement boutoir (Lumbering Knockdown)",
            "description": "<p>Votre Tricératops Marche rapidement jusqu'à 3 m puis porte une Frappe de corne. En cas de succès, la cible se retrouve @UUID[Compendium.pf2e.conditionitems.Item.j91X7x0XSomq8d60]{À terre}</p>"
        },
        "Breath Weapon": {
            "name": "Arme de souffle (Breath Weapon)",
            "description": "<p><strong>Fréquence</strong> Une fois par heure</p>\n<hr />\n<p>Le drake de monte souffle un @Template[type:cone|distance:30]{cône de 9 m} de feu, infligeant 1d6 dégâts de feu par tranche de 2 niveaux du drake à toutes les créatures dans la zone (Réflexes basique). Il utilise le DD qualifié avec le modificateur de Constitution du drake ou à partir un DD expert si le drake est spécialisé.</p>\n<p>[[/r {(floor(@actor.level/2))d6}[fire]]]{Dégâts selon le niveau}</p>"
        },
        "Darting Stab": {
            "name": "Dard éclair (Darting Stab)",
            "description": "<p>La guêpe géante Vole jusqu'à 4,5 m puis Frappe ou bien Frappe puis Vole jusqu'à 4,5 m.</p>"
        },
        "Antler Catapult": {
            "name": "Ramure catapulte (Antler Catapult)",
            "description": "<p>L'élan Fait un Pas puis une Frappe avec sa ramure. S'il s'est déplacé et a touché, l'élan peut projeter sa cible dans l'espace qu'il vient juste de quitter, ce qui constitue un déplacement forcé.</p>"
        },
        "Grip Throat": {
            "name": "Gorge serrée (Grip Throat)",
            "description": "<p>La main tente de @UUID[Compendium.pf2e.actionspf2e.Item.PMbdMWc2QroouFGD]{Saisir} une créature Moyenne ou de taille inférieure par la gorge. Si la saisie est un succès, en plus des effets ordinaires, la créature éprouve des difficultés à parler. Tant qu'elle est @UUID[Compendium.pf2e.conditionitems.Item.kWc1fhmv9LBiTuei]{Empoignée} ou @UUID[Compendium.pf2e.conditionitems.Item.VcDeM8A5oI6VqhbM]{Entravée} par la main, elle doit dépenser une action supplémentaire pour accomplir n'importe quelle action qui possède le trait verbal.</p>"
        },
        "Disgusting Gallop": {
            "name": "Galop immonde (Disgusting Gallop)",
            "description": "<p>La monture zombie Marche rapidement deux fois, projetant une salive putride le long de son parcours. Une fois pendant ce mouvement, choisissez une créature adjacente à la monture zombie. La salive l'éclabousse et la créature doit réussir un jet de Vigueur ou être @UUID[Compendium.pf2e.conditionitems.Item.fesd1n5eVhpCSS18]{Sickened 1}. La créature est alors temporairement immunisée contre la salive pendant 24 heures. Le DD utilisé est le @Check[type:fortitude|dc:resolve(12+@actor.level+@actor.abilities.con.mod)]{DD qualifié} auquel s'ajoute le modificateur de Constitution de la monture zombie ou le @Check[type:fortitude|dc:résolve(14+@actor.level+@actor.abilities.con.mod)]{DD expert} si la monture est spécialisée.</p>"
        },
        "Shred": {
            "name": "Déchiqueter (Shred)",
            "description": "<p>Le squale déchiquette vicieusement la blessure, infligeant des dégâts supplémentaires. La cible de la Frappe du requin subit [[/r 1d8[slashing]]]{1d8 dégâts tranchants} ([[/r 2d8]]{2d8} pour un requin adulte ou [[/r 3d8]]{3d8} pour un compagnon spécialisé).</p>"
        },
        "Swimming Snap": {
            "name": "Claquement aquatique (Swimming Snap)",
            "description": "<p>L'anguille géante Nage et effectue une Frappe de mâchoires à n'importe quel point de son trajet.</p>"
        },
        "Grab and Sting": {
            "name": "Saisir et piquer (Grab and Sting)",
            "description": "<p>Le scorpion maintient son ennemi en place avec ses pinces afin de le piquer. Il effectue une Frappe de pince. Si le coup touche, la créature ciblée devient automatiquement @UUID[Compendium.pf2e.conditionitems.Item.kWc1fhmv9LBiTuei]{Empoignée/agrippée} par le scorpion qui lui porte alors une Frappe de dard. L'état Agrippé dure jusqu'à la fin de votre prochain tour.</p>"
        },
        "Constrict": {
            "name": "Constriction (Constrict)",
            "description": "<p><strong>Conditions</strong> Le serpent a une créature saisie.</p>\n<hr />\n<p>Le serpent inflige [[/r {12}[blugeoning]]]{12 dégâts contondants} à la créature saisie ; la créature doit tenter un jet de Vigueur basique. Si le serpent est un compagnon spécialisé, augmentez ces dégâts à [[/r 20]]{20}.</p>"
        },
        "Hustle": {
            "name": "S'empresser (Hustle)",
            "description": "<p>Le scarabée se déplace à une vitesse incroyable. Il Marche rapidement trois fois.</p>"
        },
        "Throw Rock": {
            "name": "Lancé de rocher (Throw Rock)",
            "description": "<p>Le jeune arboréen interagit pour ramasser un rocher dans son allonge ou récupérer une pierre stockée puis la lance avec une Frappe à distance de rocher qui inflige @Damage[1d6[bludgeoning]]{1d6 points dégâts contondants} avec un facteur de portée de 9 m.</p>",
            "rules": {
                "0": {
                    "label": "Lancé de rocher"
                }
            }
        },
        "Pterosaur Swoop": {
            "name": "Piqué du ptérosaure (Pterosaur Swoop)",
            "description": "<p>Le ptérosaure Vole à sa Vitesse et porte une Frappe de bec à n'importe quel point durant ce mouvement.</p>"
        },
        "Aerial Retreat": {
            "name": "Retraite aérienne (Aerial Retreat)",
            "description": "<p>L'hippogriffe fait une Frappe de serre, puis s'envole avec un bonus de circonstances de 3 m à sa vitesse de vol. L'hippogriffe et son cavalier gagnent un bonus de circonstances de +2 à leur CA contre les réactions déclenchées par ce déplacement.</p>"
        },
        "Death from Above": {
            "name": "Piqué furieux (Death from Above)",
            "description": "<p>L'écureuil volant s'abat sur une cible en la griffant furieusement. L'écureuil tombe à un endroit inoccupé à coté de la cible, ne prenant pas de dégâts, et effectue deux Frappes de griffes. Les deux attaques comptent pour sa pénalité d'attaques multiples, mais la pénalité n'augmente qu'après que les deux attaques aient été faites.</p>"
        }
    },
    "mapping": {
        "description": "system.description.value",
        "gm": "system.description.gm",
        "rules": {
            "path": "system.rules",
            "converter": "translateRules"
        }
    }
}