{
    "label": "Effets des monstres",
    "entries": {
        "Effect: Ghonhatine Feed": {
            "name": "Effet : Nourrir la ghonhatine",
            "description": "<p>La créature obtient @UUID[Compendium.pf2e.bestiary-ability-glossary-srd.Item.fJSNOw4zHGbIm4bZ]{Guérison accélérée 5} et un bonus de statut +2 aux jets de dégâts.</p>"
        },
        "Effect: Splintered Ground (Critical Failure)": {
            "name": "Effet : Champ d'esquilles (Échec critique)",
            "description": "<p>La créature subit une pénalité de circonstances de -4,5 m à toutes ses Vitesses.</p>"
        },
        "Effect: Xulgath Stench": {
            "name": "Effet : Puanteur xulgath",
            "description": "<p>La créature subit une pénalité de statut de -1,5 m à ses Vitesses.</p>"
        },
        "Effect: Haywire": {
            "name": "Effet : Détraqué",
            "description": "<p>La créature subit une pénalité de circonstances de -1 à ses Frappes mais inflige @Damage[1d6[bludgeoning]]{1d6 dégâts contondants} supplémentaires plus @UUID[Compendium.pf2e.bestiary-ability-glossary-srd.Item.BCLvAx4Pz4MLa2pu]{Renversement}.</p>"
        },
        "Effect: Susceptible to Mockery (Critical Failure)": {
            "name": "Effet : Susceptible à la moquerie (échec critique)",
            "description": "<p>La créature obtient un bonus de statut de +1 aux Frappes et aux jets de dégâts contre ses ennemis.</p>"
        },
        "Effect: Share Pain": {
            "name": "Effet : Partager la douleur",
            "description": "<p>La créature subit une pénalité de statut de -3 mètres à ses Vitesses en cas d'échec ou une pénalité de statut de -6 mètres à ses Vitesses sur un échec critique.</p>"
        },
        "Effect: Rotting Stench": {
            "name": "Effet : Odeur de putréfaction",
            "description": "<p>Tant qu'elles sont dans l'aura, les créatures subissent aussi une pénalité de circonstances de -2 aux jets de sauvegarde contre la peur et pour récupérer de l'état Malade/nauséeux.</p>",
            "rules": {
                "1": {
                    "text": "<p>Tant qu'elles sont dans l'aura, les créatures subissent aussi une pénalité de circonstances de -2 pour récupérer de l'état Malade/nauséeux.</p>"
                }
            }
        },
        "Effect: Blood Wake": {
            "name": "Effet : Sillage de sang",
            "description": "<p>La créature subit une pénalité de statut de -4 à ses tests d'Athlétisme pour Nager.</p>"
        },
        "Effect: Blood Fury": {
            "name": "Effet : Furie du sang",
            "description": "<p>La créature obtient un bonus de statut de +1 aux jets d'attaque.</p>"
        },
        "Effect: Gloom Aura": {
            "name": "Effet : Aura de morosité",
            "description": "<p>La créature subit une pénalité de circonstances de -1 aux jets de sauvegarde fait pour résister aux effets d'émotion.</p>"
        },
        "Effect: Air of Sickness": {
            "name": "Effet : Air nauséabond",
            "description": "<p>La créature subit une pénalité de statut de -2 aux jets faits pour résister aux maladies.</p>"
        },
        "Effect: Gleaming Armor": {
            "name": "Effet : Armure brillante",
            "description": "<p>La créature obtient un bonus de statut de +2 à sa CA et une résistance aux dégâts d'énergie basée sur la créature spécifique.</p>"
        },
        "Effect: Stick a Fork in It": {
            "name": "Effet : Pique une fourchette dedans",
            "description": "<p>La créature subit une pénalité de circonstances de -3 mètres à ses Vitesses.</p>"
        },
        "Effect: Alchemical Strike": {
            "name": "Effet : Frappe alchimique",
            "description": "<p>Choisissez acide, feu, froid ou électricité. Le drudge imprègne ses attaques de poing de ces dégâts.</p>\n<p>Chaque fois qu'il touche, il inflige 1d6 points de dégâts du même type que celle de la bombe chargée à l'intérieur. Chaque bombe possède assez de fluide à l'intérieur pour porter 10 frappes réussies.</p>"
        },
        "Effect: Caustic Mucus": {
            "name": "Effet : Mucus corrosif",
            "description": "<p>La créature subit une pénalité de statut de -1,5 m à sa Vitesse. Cette réduction de Vitesse se termine avec les dégâts d'acide persistants.</p>"
        },
        "Effect: Sinful Bite": {
            "name": "Effet : Morsure du péché",
            "description": "<p>La créature subit une pénalité de statut de -3 mètres à ses Vitesses.</p>"
        },
        "Effect: Tenacious Flames": {
            "name": "Effet : Flammes tenaces",
            "description": "<p>Les créatures dans l'émanation ne peuvent pas récupérer des dégâts de feu persistants.</p>"
        },
        "Effect: Fed by Wood": {
            "name": "Effet : Renforcé par le bois",
            "description": "<p>Les dégâts de feu infligé par la mâchoire de la créature augmentent d'un dé</p>"
        },
        "Effect: Towering Stance (Disbelieved)": {
            "name": "Effet : Grande prestance (Percer l'illusion)",
            "description": "<p>La créature prend une taille Moyenne</p>"
        },
        "Effect: Hurl Net": {
            "name": "Effet : Lancé de filet",
            "description": "<p>La créature subit une pénalité de circonstances de -3 mètres à ses Vitesses.</p>"
        },
        "Effect: Claim Corpse - Fleshy": {
            "name": "Effet : Réclamer un cadavre - charnu"
        },
        "Effect: Call to Halt (Success)": {
            "name": "Effet : Halte-là (Succès)",
            "description": "<p>La cible subit une pénalité de -3 m à toutes ses Vitesses pour 1 minute.</p>"
        },
        "Effect: Pain Frenzy": {
            "name": "Effet : Frénésie de la douleur",
            "description": "<p>La créature obtient un bonus de +2 de statut aux jets d'attaque et de dégâts.</p>"
        },
        "Effect: Bully the Departed": {
            "name": "Effet : Harcèlement des défunts",
            "description": "<p>La créature obtient Régénération 15 (désactivée par Force ou Bon) et inflige @Damage[1d8[spirit]]{1d8 dégâts spirituels} supplémentaires sur ses Frappes.</p>"
        },
        "Effect: Consume Soul": {
            "name": "Effet : Dévorer les âmes",
            "description": "<p>L'obcisidaémon choisit un des effets suivants.</p>\n<p><em>Sort amélioré</em> L'obcisidaémon obtient un bonus de statut de +2 à son DD de sort et son jet d'attaque de sort jusqu'à la fin de son prochain tour.</p>\n<p><em>Arme améliorée</em> L'arme de l'obcisidaémon obtient les effets d'une rune enflammée supérieure, de froid supérieur, de choc supérieur ou sanglante jusqu'à la fin de son prochain tour.</p>"
        },
        "Effect: Nymph Queen's Inspiration": {
            "name": "Effet : Inspiration de la nymphe souveraine",
            "description": "<p>La créature obtient un bonus de statut de +1 à tous les tests d'Artisanat, tests de Représentation et aux jets de Volonté. Les bardes obtiennent un avantage supplémentaire :</p>\n<ul>\n<li><strong>muse énigmatique</strong> le barde obtient un bonus de statut de +1 à tous ses tests de Connaissance</li>\n<li><strong>muse virtuose</strong> le barde obtient un bonus de statut aux tests de Représentation est de +2 pour déterminer les effets des compositions</li>\n<li><strong>muse touche-à-tout</strong> le bonus de statut de +4 à ses tests avec une compétence dans laquelle il est inexpérimenté</li>\n<li><strong>autres muses</strong> le bonus au jet de Volonté passe à +2 contre les fées.</li>\n</ul>"
        },
        "Effect: Overdrive Engine": {
            "name": "Effet : Surcharge moteur",
            "description": "<p>Reginald obtient 200 points de vie temporaires, un bonus de statut de +4,5 m à sa Vitesse et un bonus de statut de +2 aux jets d'attaque au corps-à-corps.</p>"
        },
        "Effect: Alchemical Crossbow": {
            "name": "Effet : Arbalète alchimique",
            "description": "<p>L'arbalète alchimique inflige 1d6 dégâts supplémentaires du type infligé par la bombe utilisée.</p>"
        },
        "Effect: Vengeful Fibers": {
            "name": "Effet : Fibres vengeresses",
            "description": "<p>La cible subit une pénalité de circonstances de -3 mètres à ses Vitesses.</p>"
        },
        "Effect: Mangling Rend": {
            "name": "Effet : Mutilation acharnée",
            "description": "<p>La cible subit une pénalité de statut de -6 mètres à toutes ses Vitesses jusqu'à la fin de son prochain tour.</p>"
        },
        "Effect: Wrath of Spurned Hospitality": {
            "name": "Effet : Courroux de l'hospitalité refusée",
            "description": "<p>Le nyctère obtient un bonus de statut de +2 à ses jets d'attaque et de dégâts sur ses Frappes de poing.</p>"
        },
        "Effect: Challenge Foe": {
            "name": "Effet : Défier l'ennemi",
            "description": "<p>Vous obtenez un bonus de circonstances aux dégâts égal à votre nombre de dés de dégâts d'arme contre votre ennemi désigné mais subissez une pénalité de circonstances équivalente contre toute autre créature.</p>"
        },
        "Effect: Dust Eternal": {
            "name": "Effet : Poussière éternelle",
            "description": "<p>Tout ce qui se trouve dans l'aura est @UUID[Compendium.pf2e.conditionitems.Item.DmAIPqOBomZ7H95W]{Masqué}.</p>"
        },
        "Effect: Warning Hoot": {
            "name": "Effet : Hululement d'avertissement",
            "description": "<p>Les cibles obtiennent un bonus de circonstances de +1 à leur jet d'initiative.</p>"
        },
        "Effect: Fortune's Favor": {
            "name": "Effet : Faveur de la Fortune",
            "description": "<p>Lorsque la créature fait un type spécifique de jet de sauvegarde, elle fait deux jets et garde le meilleur. Le type de jet de sauvegarde est déterminé par la couleur qui a été mise en avant lors de la lecture la plus récente de la poupée : Vigueur (Marteaux ou Boucliers), Réflexes (Clés ou Livres) ou Volonté (Étoiles ou Couronnes).</p>"
        },
        "Effect: Kharna's Blessing": {
            "name": "Effet : Bénédiction de Kharnas"
        },
        "Effect: Song of the Swamp": {
            "name": "Effet : Chant des marais",
            "description": "<p>La créature obtient un bonus de statut de +2 aux jets de dégâts et aux jets de sauvegarde contre la peur</p>"
        },
        "Effect: Crocodile Form": {
            "name": "Effet : Forme de crocodile",
            "description": "<p>Le bunyip obtient une Vitesse terrestre de 6 m mais sa Frappe de mâchoire perd les dégâts de saignement.</p>"
        },
        "Effect: Crush Chitin": {
            "name": "Effet : Brise-chitine",
            "description": "<p>La créature subit une pénalité de circonstances de -2 à la CA.</p>"
        },
        "Effect: Distracting Frolic": {
            "name": "Effet : Cabrioles distrayantes",
            "description": "<p>La cible alliée peut lancer le jet de sauvegarde deux fois et prendre le meilleur résultat.</p>"
        },
        "Effect: Spray Toxic Oil": {
            "name": "Effet : Aspersion d'huile toxique",
            "description": "<p>La créature obtient une faiblesse au feu 5 et lorsque la créature obtient un échec critique avec un jet d'attaque avec une arme qu'elle manie, elle lâche l'arme.</p>"
        },
        "Effect: Entangling Slime": {
            "name": "Effet : Mucosité enchevêtrante",
            "description": "<p>La créature devient Maladroite 1 et subit une pénalité à la Vitesse de -1,5 m.</p>"
        },
        "Effect: Flammable": {
            "name": "Effet : Inflammable",
            "description": "<p>Lorsqu'il brûle, Les frappes d'un bakeneko infligent 1d6 dégâts de feu supplémentaires.</p>"
        },
        "Effect: Soul Crush (Healing)": {
            "name": "Effet : Broyage d'âme (Soins)",
            "description": "<p>Le thanadaémon gagne Guérison accélérée 15 pendant 1 minute.</p>"
        },
        "Effect: Ectoplasmic Form (Physical)": {
            "name": "Effet : Forme ectoplasmique (physique)",
            "description": "<p>La créature perd le trait intangible, l'immunité aux dégâts de précision et toutes ses résistances. Elle obtient des points de vie temporaires et une CA augmentée en fonction de la créature, ces Frappes de mâchoires inflige des dégâts perforants et ses Frappes de griffes infligent des dégâts tranchants à la place de dégâts du vide.</p>"
        },
        "Effect: Stench": {
            "name": "Effet : Puanteur",
            "description": "<p>La créature subit une pénalité de circonstances de -2 aux jets de sauvegarde contre la maladie.</p>"
        },
        "Effect: Whirlwind Form": {
            "name": "Effet : Forme de tornade",
            "description": "<p>La créature obtient une résistance 10 contre les dégâts physiques.</p>"
        },
        "Effect: Nanite Surge (Glow)": {
            "name": "Effet : Poussée nanite (briller)",
            "description": "<p>La créature émet une lumière faible dans une émanation de 3 m.</p>"
        },
        "Effect: Interpose": {
            "name": "Effet : Interposition",
            "description": "<p>La créature obtient un bonus de circonstances de +2 à la CA.</p>"
        },
        "Effect: Aura of Good Cheer": {
            "name": "Effet : Aura de bonne humeur",
            "description": "<p>Les alliés au sein de l'aura obtiennent un bonus de statut de +1 aux jets de Volonté contre les effets d'émotion.</p>"
        },
        "Effect: Rune of Smiting (Rock)": {
            "name": "Effet : Rune de destruction (Rocher)",
            "description": "<p>Lorsque le rocher touche, le géant peut Pousser la cible de 3 mètres ou de 6 mètres en cas de coup critique.</p>",
            "rules": {
                "0": {
                    "text": "{item|system.description.value}"
                }
            }
        },
        "Effect: Aura of Vitality": {
            "name": "Effet : Aura de vitalité",
            "description": "<p>Les alliés dans l'aura du déva movanique obtiennent un bonus de statut +1 à tous leurs jets de sauvegarde, une résistance 10 aux dégâts de vitalité et de vide et ne sont pas blessés par les effets des traits de vitalité et de vide d'un plan. Les animaux de niveau 12 ou inférieurs situés dans l'aura n'attaquent pas le déva movanique ou ses alliés à moins qu'ils ne soient contrôlés ou forcés à le faire.</p>"
        },
        "Effect: Focused Assault": {
            "name": "Effet : Assaut concentré",
            "description": "<p>La créature inflige des dégâts supplémentaires basés sur le nombre d'épées longues qu'elle manie.</p>"
        },
        "Effect: Aura of Smoke": {
            "name": "Effet : Aura de fumée",
            "description": "<p>Chaque créature dans l'aura est Masquée.</p>"
        },
        "Effect: Bark Orders": {
            "name": "Effet : Aboyer des ordres",
            "description": "<p>Tous les alliés kobolds dans les 9 mètres de lui obtiennent un bonus de statut de +1 à ses jets d'attaque contre les effets de peur jusqu'au début du prochain tour du chef Écailles de suie.</p>"
        },
        "Effect: Blood Magic": {
            "name": "Effet : Magie du sang",
            "description": "<p>La créature obtient un bonus de statut de +2 à ses jets de Volonté.</p>"
        },
        "Effect: Putrid Blast": {
            "name": "Effet : Éruption nauséabonde",
            "description": "<p>La créature subit une pénalité de circonstances de -2 aux jets de Vigueur contre la bile xulgathe pendant 1 minute</p>"
        },
        "Effect: Fed by Metal": {
            "name": "Effet : Renforcé par le métal",
            "description": "<p>La créature obtient un bonus d'objet de +1 à sa CA</p>"
        },
        "Effect: Fan Bolt": {
            "name": "Effet : Carreau arbalète",
            "description": "<p>La créature subit une pénalité de -3 m à sa Vitesse de nage.</p>"
        },
        "Effect: Aura of Misfortune": {
            "name": "Aura d'infortune",
            "description": "<p>Les créatures vivantes dans l'aura doivent lancer deux fois tous leurs d20 et utiliser le moins bon résultat.</p>"
        },
        "Effect: Pry": {
            "name": "Effet : Forcer",
            "description": "<p>La créature obtient une pénalité de statut de -1 aux tests de compétence basés sur le Charisme.</p>"
        },
        "Effect: Gird in Prayer": {
            "name": "Effet : Ceint de prières",
            "description": "<p>La créature obtient un bonus de statut de +2 aux jets de sauvegarde contre la mort, les dégâts mentaux et les effets de possession.</p>"
        },
        "Effect: Bosun's Command - Speed Bonus": {
            "name": "Effet : Ordre de bosco - Bonus de vitesse",
            "description": "<p>La créature obtient un onus de statut de +3 m à ses Vitesses.</p>"
        },
        "Effect: Putrid Stench": {
            "name": "Effet : Odeur putride",
            "description": "<p>La créature subit une pénalité de statut de -&,5 m à ses Vitesses.</p>"
        },
        "Effect: Rune of Destruction (Rock)": {
            "name": "Effet : Rune de destruction (Rocher)",
            "description": "<p>La pique obtient le trait mortel 3d12 et une créature touchée avec la pique est @UUID[Compendium.pf2e.conditionitems.Item.4D2KBtexWXa6oUMR]{Drainée 1} à moins de réussir un jet de @Check[type:fortitude|dc:35|name:Rune of Destruction|traits:arcane].</p>",
            "rules": {
                "0": {
                    "text": "{item|system.description.value}"
                }
            }
        },
        "Effect: Despair": {
            "name": "Effet : Désespoir",
            "description": "<p>Les créatures vivantes sont effrayées 1 tant qu'elles se trouvent dans la zone d'effet de l'aura de désespoir. Elles ne peuvent pas quitter naturellement cet état tant qu'elles se trouvent dans cette zone, mais il se dissipe immédiatement si elles la quittent.</p>"
        },
        "Effect: Divine Aegis": {
            "name": "Effet : Égide divine",
            "description": "<p>La créature obtient un bonus de circonstances de +1 à tous les jets de sauvegarde contre les effets de la magie non-divine et il subit une pénalité de circonstances de -1 à tous les jets de sauvegarde contre les effets de la magie divine</p>"
        },
        "Effect: Lost Red Cap": {
            "name": "Effet : Bonnet rouge perdu",
            "description": "<p>La créature subit une pénalité de statut de -4 à ses jets de dégâts.</p>"
        },
        "Effect: Blasphemous Utterances": {
            "name": "Effet : Paroles blasphématoires",
            "description": "<p>La créature subit une pénalité de circonstances de -2 à ses jets de sauvegarde contre les effets mentaux et ne peut utiliser d'actions avec le trait concentration à moins de réussir un @Check[type:flat|dc:10]. Si le test rate, l'action est perdue.</p>"
        },
        "Effect: Aura of Command": {
            "name": "Effet : Aura du commandant",
            "description": "<p>La créature obtient un bonus de statut de +1 aux jets d'attaque et un bonus de statut de +2 aux jets de Volonté.</p>"
        },
        "Effect: Jury-Rig": {
            "name": "Effet : Bricolé",
            "description": "<p>La cible obtient 10 PV temporaires.</p>"
        },
        "Effect: Unluck Aura": {
            "name": "Effet : Aura de malchance",
            "description": "<p>La créature doit faire son jet deux fois et utiliser le pire résultat sur tous les jets.</p>"
        },
        "Effect: Hurtful Critique": {
            "name": "Effet : Critique acerbe",
            "description": "<p>La créature subit une pénalité de circonstances de -1 à ses jets d'attaque (-2 sur un échec critique).</p>"
        },
        "Effect: Scraping Clamor": {
            "name": "Effet : Grattage assourdissant"
        },
        "Effect: Barbed Net": {
            "name": "Effet : Filet barbelé",
            "description": "<p>La créature subit une pénalité circonstances de -3 m à ses Vitesses.</p>"
        },
        "Effect: Fetid Screech (Critical Failure)": {
            "name": "Effet : Cri fétide (échec critique)",
            "description": "<p>La créature subit une pénalité de statut de -1,5 m à ses Vitesses.</p>"
        },
        "Effect: Defensive Slam": {
            "name": "Effet : Claque défensive",
            "description": "<p>La créature obtient un bonus de circonstances de +2 à sa CA.</p>"
        },
        "Effect: Curse of Frost": {
            "name": "Effet : Malédiction du givre",
            "description": "<p>La créature obtient une faiblesse au froid 15.</p>"
        },
        "Effect: Harrow Burst": {
            "name": "Effet : Explosion du Tourment",
            "description": "<p>Une créature qui obtient un échec sur sont jet de sauvegarde lance [[/r 1d6]]{1d6} pour déterminer la couleur des cartes : 1 = marteaux (Force), 2 = clés (Dextérité), 3 = boucliers (Constitution), 4 = livres (Intelligence), 5 = étoiles (Sagesse), 6 = couronnes (Charisme). La créature subit une pénalité de statut de –1 à tous les tests relatifs à ce score d'attribut pendant 1 round (pénalité de statut de –2 sur un échec critique)</p>"
        },
        "Effect: Dirty Bomb (Critical Failure)": {
            "name": "Effet : Bombe sale (échec critique)",
            "description": "<p>La créature subit une pénalité de circonstances de -3 aux jets de Vigueur contre les bombes sales du chimiste.</p>"
        },
        "Effect: Curse of Stone": {
            "name": "Effet : Malédiction de la pierre",
            "description": "<p>La créature obtient un bonus de statut de +1 à sa CA.</p>"
        },
        "Effect: Blade Barrage": {
            "name": "Effet : Barrage de lame",
            "description": "<p>Il gagne un bonus de circonstances cumulatif de +2 aux dégâts pour chaque Frappe réussie.</p>"
        },
        "Effect: Bodyguard's Defense": {
            "name": "Effet : Défense du garde du corps",
            "description": "<p>La créature obtient un bonus de circonstances de +2 à la CA.</p>"
        },
        "Effect: Praise Adachros": {
            "name": "Effet : Louange à l'adachros",
            "description": "<p>La créature obtient un bonus de statut de +1 à ses jets d'attaque, de perception, de sauvegarde et de compétences.</p>"
        },
        "Effect: Curse of the Baneful Venom": {
            "name": "Effet : Malédiction du venin maléfique",
            "description": "<p>La créature tente immédiatement son prochain jet de sauvegarde contre un poison avec une pénalité de statut de -2.</p>"
        },
        "Effect: Capture Magic": {
            "name": "Effet : Magie capturée",
            "description": "<p>La lame du magus obtient un bonus de statut de +2 aux dégâts de Cascade arcanique.</p>"
        },
        "Effect: Wolf Shape": {
            "name": "Effet : Forme de loup",
            "description": "<p>Le barghest obtient une Vitesse de 12 m et ses mâchoires obtiennent @UUID[Compendium.pf2e.bestiary-ability-glossary-srd.Item.BCLvAx4Pz4MLa2pu]{Renversement}.</p>"
        },
        "Effect: Undead Mastery": {
            "name": "Effet : maîtrise des morts vivants",
            "description": "<p>La créature obtient un bonus de circonstances de +1 aux jets d'attaques, de dégâts, à la CA, aux jets de sauvegarde et aux tests de compétence.</p>"
        },
        "Effect: Caustic Drool": {
            "name": "Effet : Bave acide",
            "description": "<p>La Frappe de mâchoire du molosse chthonien inflige 2 points de dégâts d'acide supplémentaires en cas d'attaque réussie ou 4 points en cas de coup critique.</p>"
        },
        "Effect: Viscous Breath": {
            "name": "Effet : Souffle visqueux",
            "description": "<p>Les créatures dans l'aura subissent une pénalité de statut de -2 à toutes les attaques physiques non-magiques qu'elles tentent.</p>"
        },
        "Effect: Mortal Reflection": {
            "name": "Effet : Reflet mortel",
            "description": "<p>L'automate imparfait tire des émotions de la cible pour rappeler un semblant de sensation mortelle, obtenant un bonus de statut de +1,5 m à sa Vitesse pendant 1 minute.</p>"
        },
        "Effect: Volcanic Purge": {
            "name": "Effet : Purge volcanique",
            "description": "<p>La cible subit @Damage[4d6[persistent,fire]]{4d6 dégâts de feu persistants} et, tant qu'elle subit ces dégâts de feu persistants, elle subit aussi une pénalité de statut de -3 mètres à ses Vitesses.</p>"
        },
        "Effect: Call to Blood": {
            "name": "Effet : Appel du sang",
            "description": "<p>La créature obtient un bonus de statut de +2 aux jets d'attaque contre les créatures @UUID[Compendium.pf2e.conditionitems.Item.AJh5ex99aV6VTggg]{Prises au dépourvu}.</p>"
        },
        "Effect: Musk": {
            "name": "Effet : Musc",
            "description": "<p>La créature subit une pénalité de 12 aux tests de Discrétion.</p>"
        },
        "Effect: Utter Despair": {
            "name": "Effet : Grand désespoir",
            "description": "<p>Les créatures vivantes sont effrayées 2 tant qu'elles se trouvent dans l'aura de grand désespoir. Elles ne peuvent se remettre naturellement de cette terreur tant qu'elles restent dans l'aura, mais l'état effrayé disparaît immédiatement si elles la quittent.</p>"
        },
        "Effect: Bloodline Magic": {
            "name": "Effet : Magie du lignage",
            "description": "<p>La créature obtient un bonus de statut de +1 aux tests de Duperie.</p>"
        },
        "Effect: Breach the Abyss - Electricity": {
            "name": "Effet : Brèche dans les Failles extérieures - électricité",
            "description": "<p>La créature inflige @Damage[2d6[electricity]]{2d6 dégâts d'électricité} supplémentaires avec son arme.</p>"
        },
        "Effect: Demon-Touched Weapon": {
            "name": "Effet : Touché par le démon",
            "description": "<p>Shenga inflige 1d6 dégâts de saignement avec ses Frappes au corps-à-corps.</p>"
        },
        "Effect: Mutilating Bite": {
            "name": "Effet : Morsure estropiante",
            "description": "<p>La créature subit une pénalité de statut de -1 aux tests de compétences basés sur le Charisme. Cette pénalité est cumulative jusqu'à -3.</p>"
        },
        "Effect: Witchflame (Critical Failure)": {
            "name": "Effet : Flammes ensorcelées (échec critique)",
            "description": "<p>La créature obtient une faiblesse au feu 10.</p>"
        },
        "Effect: Rockfall Failure": {
            "name": "Effet : Échec à l'éboulement",
            "description": "<p>La créature affectée subit une pénalité de circonstances de -3 m à ses Vitesses de déplacement pendant 1 round.</p>"
        },
        "Effect: Unsettling Attention": {
            "name": "Effet : Attention déconcertante",
            "description": "<p><strong>Échec</strong> La créature est déconcertée et subit une pénalité de -2 à tous les jets contre les effets de peur tant qu'ils restent au sein du maléfice contenant Candlemere.</p>"
        },
        "Effect: Crushing Spirits": {
            "name": "Effets : Esprits écrasants",
            "description": "<p>La créature subit une pénalité de circonstances de -3 m à toutes ses Vitesses.</p>"
        },
        "Effect: Deceitful Feast (Failure)": {
            "name": "Effet : Festin illusoire (Échec)",
            "description": "<p>La créature subit une pénalité de -1 de circonstances aux jets de sauvegarde de Volonté contre les sorts ou les capacités du brughadatch. La pénalité augmente après chaque échec à une sauvegarde, jusqu'à un maximum de -5.</p>"
        },
        "Effect: Furious Possession": {
            "name": "Effet : Possession de fureur",
            "description": "<p>La créature gagne [[/r 12]]{12} Points de vie temporaires qui sont perdus lorsque la possession se termine. Pendant la possession, la créature émet l'aura Pulsion de rage. A chaque fois que la créature effectue une attaque au corps-à-corps, l'esprit peut substituer ses modificateurs d'attaque de griffe, le montant des dégâts ou les deux, en lieu et place des modificateurs de la créature.</p>\n<p>@UUID[Compendium.pf2e.bestiary-effects.Item.GC5441z8i7N8swk1]{Effet : Pulsion de rage}</p>"
        },
        "Effect: Timely Advice": {
            "name": "Effet : Conseil opportun",
            "description": "<p>Le sage lui donne un conseil plein de bon sens, lui apportant un éclairage précieux. L'allié gagne un bonus de circonstances de +2 au jet déclencheur.</p>"
        },
        "Effect: Reminder of Doom": {
            "name": "Effet : Souvenir du destin",
            "description": "<p>La créature obtient un bonus de statut de +2 aux jets d'attaque et aux jets de dégâts.</p>"
        },
        "Effect: Claim Corpse - Skeletal": {
            "name": "Effet : Réclamer un cadavre - Squelettique"
        },
        "Effect: Bolster Torag's Chosen": {
            "name": "Effet : Renforcement de l'Élu de Torag",
            "description": "<p>Vous obtenez un bonus de statut de +1 à la CA et les jets de Volonté.</p>"
        },
        "Effect: Guiding Words": {
            "name": "Effet : Indiquer la faiblesse",
            "rules": {
                "0": {
                    "label": "En attaquant la cible désignée"
                }
            }
        },
        "Effect: Downcast": {
            "name": "Effet : Abattu",
            "description": "<p>La créature subit une pénalité de statut de -1 à ses jets d'attaque.</p>"
        },
        "Effect: Zinba Restoration": {
            "name": "Effet : Restauration zinba",
            "description": "<p>La créature obtient Guérison accélérée 5 pendant 1 minute.</p>"
        },
        "Effect: Sandstorm": {
            "name": "Effet : Tempête de sable",
            "description": "<p>La créature subit une pénalité de circonstances de -4 à ses tests de Perception.</p>"
        },
        "Effect: Mist Cloud": {
            "name": "Effet : Nappe de brume",
            "description": "<p>Les créatures dans l'aura sont masquées.</p>"
        },
        "Effect: Devour Soul": {
            "name": "Effet : Engloutissement d'âme",
            "description": "<p>La créature obtient 10 pv temporaires et un bonus de statut de +2 aux jets d'attaque et de dégâts.</p>"
        },
        "Effect: Call to Action": {
            "name": "Effet : Appel à la mobilisation",
            "description": "<p>La créature obtient un bonus de statut de +1 à l'attaque et aux jets de dégâts.</p>"
        },
        "Effect: Bittersweet Dreams": {
            "name": "Effet : Rêves aigres-doux",
            "description": "<p>La créature subit une pénalité de statut à ses jets d'attaque, de sauvegarde, et jets de compétence dépendant du résultat de son jet de sauvegarde.</p>"
        },
        "Effect: Riding Zogototaru": {
            "name": "Effet : Monter zogototaru",
            "description": "<p>Vous subissez une pénalité de circonstances de –2 à vos jets de Réflexes contre les blayages de Zogototaru.</p>"
        },
        "Effect: Rockfall Critical Failure": {
            "name": "Effet : Échec critique à l'éboulement",
            "description": "<p>La créature affectée subit une pénalité de circonstances de -6 m à ses Vitesses de déplacement pendant 2 rounds.</p>"
        },
        "Effect: Entangling Train": {
            "name": "Effet : Ficelles enchevêtrantes",
            "description": "<p>La créature subit une pénalité de circonstances de -4,5 mètres à ses Vitesses.</p>"
        },
        "Effect: Vent Energy": {
            "name": "Effet : Évacuation d'énergie",
            "description": "<p>L'arme et les frappes de l'hadrinnex infligent 2d6 dégâts d'énergie supplémentaires en fonction du type de dégâts dans la glande énergétique.</p>"
        },
        "Effect: Graveknight's Curse": {
            "name": "Effet : Malédiction du Chevalier sépulcre",
            "description": "<p>La Vitesse de la créature est réduite de -3 mètres.</p>"
        },
        "Effect: Forgiven Defaced Naiad Queen's Thanks": {
            "name": "Effet : Remerciements de la Souveraine naïade défigurée",
            "description": "<p>Vous obtenez un bonus de statut de +3 à ses tests de Connaissances et à ses jets de sauvegarde contre les effets de peur pendant 24 heures.</p>"
        },
        "Effect: Consume Organ": {
            "name": "Effet : Consommation d'organe",
            "description": "<p>La créature obtient 15 Points de vie temporaires et un bonus de statut de +1 aux jets d'attaque et de dégâts.</p>"
        },
        "Effect: Lurker's Glow (Critical Failure)": {
            "name": "Effet : Lueur du rôdeur (Échec critique)",
            "description": "<p>La créature diffuse une lumière vive dans une émanation de 6 mètres pendant toute la durée de l'effet</p>"
        },
        "Effect: Discerning Aura": {
            "name": "Effet : Aura de discernement",
            "description": "<p>Tous les morts-vivants dans l'aura sont soulignés de bleu; émettant une lumière faible dans un rayon de 1,5 m.</p>"
        },
        "Effect: Curse of Fire": {
            "name": "Effet : Malédiction du feu",
            "description": "<p>La créature obtient une faiblesse au feu 15.</p>"
        },
        "Effect: Pest Haven": {
            "name": "Effet : Havre de vermine",
            "description": "<p>Toute nuée partageant l'espace d'un maille-peaux gagne @UUID[Compendium.pf2e.bestiary-ability-glossary-srd.Item.fJSNOw4zHGbIm4bZ]{Guérison accélérée 3}</p>"
        },
        "Effect: Technology Control": {
            "name": "Effet : Contrôle technologique",
            "description": "<p>La cible subit une pénalité de circonstances de -2 a ses jets d'attaques et à ses DD contre une créature qu'elle ne devrait normalement pas attaquer.</p>\n<hr />\n<p><em>Note : Cet effet applique une pénalité à tous les jets et à tous les DD lorsqu'il est actif.</em></p>"
        },
        "Effect: Hypnotic Stare": {
            "name": "Effet : Regard hypnotisant",
            "description": "<p>La cible subit une pénalité de -2 aux jets de Volonté.</p>"
        },
        "Effect: Aura of Corruption": {
            "name": "Effet : Aura de corruption",
            "description": "<p>La créature est considérée comme si elle était une plante pour les besoin de tout effet qui blesserait particulièrement ou qui aurait des inconvénients pour des créatures plantes plus que d'autres créatures, mais elle n'obtient aucun avantage du fait d'être une créature plante.</p>"
        },
        "Effect: Guide's Warning": {
            "name": "Effet : Avertissement du guide"
        },
        "Effect: Manipulate Luck (Good)": {
            "name": "Effet : Manipuler la chance (Bonne)",
            "description": "<p>La créature affectée peut jeter deux fois un d20 dans la minute qui suit, et utiliser le meilleur résultat.</p>"
        },
        "Effect: Rune of Flames (Greatsword)": {
            "name": "Effet : Rune de flammes (épée à deux mains)",
            "description": "<p>L'épée à deux mains inflige 3d6 dégâts de feu supplémentaire sur toutes les attaques.</p>",
            "rules": {
                "0": {
                    "label": "Rune de flammes"
                }
            }
        },
        "Effect: Sylvan Wine (Horned Hunter)": {
            "name": "Effet : Vin sylvestre (Chasseur cornu)",
            "description": "<p>La créature obtient un bonus d'objet de +3 aux jets de Volonté.</p>"
        },
        "Effect: Parry Dance": {
            "name": "Effet : Danse de parade",
            "description": "<p>Le décauché obtient un bonus de circonstances de +2 à sa CA jusqu'à la fin de son prochain tour.</p>"
        },
        "Effect: Tail Lash (Skill Check)": {
            "name": "Effet : Coup de queue (Test de compétence)",
            "description": "<p>La créature subit une pénalité de circonstances de -2 au jet de compétence déclencheur.</p>"
        },
        "Effect: Rapid Evolution - Energy Gland": {
            "name": "Effet : Évolution rapide - Glande énergétique",
            "description": "<p>La créature obtient une résistance aux dégâts d'énergie similaire au type déclencheur.</p>"
        },
        "Effect: Cat Sith's Mark": {
            "name": "Effet : Marque du chat sith",
            "description": "<p>Lorsque la créature maudite obtient un succès critique sur un test de compétence ou un jet de sauvegarde, elle bénéficie d'un succès à la place. Chaque jour, la créature maudite peut tenter un @Check[type:flat|dc:10|name:Briser la marque du chat sith] pour briser la malédiction.</p>"
        },
        "Effect: Read the Stars (Critical Success)": {
            "name": "Effet : Lecture des astres (succès critique)",
            "description": "<p>La créature obtient un bonus de circonstances de +1 aux jets de sauvegarde.</p>"
        },
        "Effect: Infernal Wound": {
            "name": "Effet : Blessure infernale",
            "description": "<p>Le DD du test nu pour arrêter le saignement est de 20. Le DD est réduit à 15 si la créature qui saigne ou un allié obtient un succès pour l'assister.</p>"
        },
        "Effect: Guardian's Aegis": {
            "name": "Effet : Égide du gardien",
            "description": "<p>La créature obtient un bonus de statut de +1 aux jets de sauvegarde contre les effets magiques. Le bonus passe à +2 si l'effet est issu d'un démon ou autre créature fiélonne d'alignement chaotique mauvais.</p>"
        },
        "Effect: Surgical Rend": {
            "name": "Effet : Éventration chirurgicale",
            "description": "<p>Jusqu'à ce que la créature ait récupéré tous ses points de vie, ce qui referme la blessure, les Frappes contre la créature infligent 1d6 dégâts de précision supplémentaires.</p>"
        },
        "Effect: Raise Guard": {
            "name": "Effet : Lever sa garde",
            "description": "<p>La créature obtient un bonus de circonstances de +2 à la CA.</p>"
        },
        "Effect: Manipulate Luck (Bad)": {
            "name": "Effet : Manipulation de la chance (Mauvaise)",
            "description": "<p>La créature affectée peut jeter deux fois son prochain d20 et utiliser le résultat le moins bon.</p>"
        },
        "Effect: Inspire Courage (Love Siktempora)": {
            "name": "Effet : Hymne de courage (Siktempora de l'amour)",
            "description": "<p>La créature obtient un bonus de statut de +2 aux jets d'attaque, aux jets de dégâts et aux jets de sauvegarde contre les effets de peur.</p>"
        },
        "Effect: Hallucinogenic Pollen (Failure)": {
            "name": "Effet : Pollen hallucinogène (Échec)",
            "description": "<p>La créature subit une pénalité de statut de -2 aux tests de Perception et aux jets de sauvegarde contre les effets mentaux.</p>"
        },
        "Effect: Wild Shape (Oaksteward)": {
            "name": "Effet : Forme indomptée (Oaksteward)",
            "description": "<p>La main d'Oaksteward se transforme en Griffes sauvages</p>"
        },
        "Effect: Inspire Envoy": {
            "name": "Effet : Inspiration de l'émissaire",
            "description": "<p>La créature obtient un bonus de statut à ses jets d'attaque, CA, ou toutes les compétences suivantes : Perception, Jets de sauvegarde et les jets de compétence basés sur le charisme. La valeur de ce bonus dépend des spécificités de la créature qui octroie ce bonus.</p>"
        },
        "Effect: Aura of Righteousness (Planetar)": {
            "name": "Effet : Aura de vertu (Planétar)",
            "description": "<p>Les alliés dans l'aura du planétar gagnent un bonus de statut +2 à leur CA et un bonus de statut de +2 aux jets de dégâts contre les créatures maléfiques.</p>"
        },
        "Effect: Motivating Assault": {
            "name": "Effet : Assaut motivant",
            "description": "<p>Vous obtenez un bonus de statut de +1 aux jets d'attaque, aux jets de dégâts et aux jets de sauvegarde contre les effets de peur.</p>"
        },
        "Effect: Inspired Feast": {
            "name": "Effet : Festin inspirant",
            "description": "<p>La créature obtient un bonus de statut de +1 aux jets d'attaque et un bonus de statut de +2 aux jets de dégâts.</p>"
        },
        "Effect: Lantern of Hope": {
            "name": "Effet : Lanterne d'espoir",
            "description": "<p>La créature obtient un bonus de statut de +1 aux jets de dégâts et aux jets de sauvegarde contre @UUID[Compendium.pf2e.spells-srd.Item.GaRQlC9Yw1BGKHfN]{Vague de désespoir}.</p>",
            "rules": {
                "1": {
                    "label": "Lanterne d'espoir (contre Vague de désespoir)"
                }
            }
        },
        "Effect: Enraging Whistle": {
            "name": "Effet : Coup de sifflet enragé",
            "description": "<p>Les animaux gagnent un bonus de statut de +1 à leur jets d'attaque et aux dégâts</p>"
        },
        "Effect: Rune of Flames (Longspear)": {
            "name": "Effet : Rune de Flammes (Pique)",
            "description": "<p>La pique inflige 3d6 dégâts de feu supplémentaires sur toutes les attaques.</p>",
            "rules": {
                "0": {
                    "label": "Rune de flammes"
                }
            }
        },
        "Effect: Share Defenses": {
            "name": "Effet : Partager les défenses",
            "description": "<p>La créature obtient une résistance au froid 10.</p>"
        },
        "Effect: Noxious Smog": {
            "name": "Effet : Nuage nocif de pollution",
            "description": "<p>Les créatures dans l'aura sont Masquées.</p>"
        },
        "Effect: Battle Cry": {
            "name": "Effet : Cri de guerre",
            "description": "<p>La créature obtient un bonus de statut de +1 à ses jets d'attaque et de dégâts.</p>"
        },
        "Effect: Darivan's Bloodline Magic": {
            "name": "Effet : Magie du lignage de Darivan",
            "description": "<p>Lorsque la magie de lignage de Darivan s'active, ses mouvements prennent une grâce surnaturelle et distraient une cible ; cela confère à Darivan un bonus de statut de +1 aux tests de Diplomatie pendant 1 round et impose à cette cible une pénalité de statut de -1 à ses jets de Volonté pendant 1 round.</p>"
        },
        "Effect: Rune of Smiting (Longspear)": {
            "name": "Effet : Rune de destruction (Pique)",
            "description": "<p>Lorsque la pique touche, le géant peut Repousser la cible de 3 m ou de 6 m sur un coup critique.</p>",
            "rules": {
                "0": {
                    "text": "{item|system.description.value}"
                }
            }
        },
        "Effect: Read the Cards": {
            "name": "Effet : Lecture des cartes",
            "description": "<p>Lancez [[/r 1d6]]{1d6} pour déterminer une couleur. La créature du Tourment obtient les effets de la couleur pendant 1 minute. Si la couleur correspond à la couleur de la créature du Tourment, la valeur est doublée.</p>\n<ul>\n<li><strong>Marteaux</strong> The harrowkin gains a +2 status bonus to damage rolls.</li>\n<li><strong>Clés</strong> La créature du Tourment obtient un bonus de statut de +1 à la CA.</li>\n<li><strong>Boucliers</strong> La créature du Tourment obtient Guérison accélérée 5.</li>\n<li><strong>Livres</strong> La créature du Tourment obtient un bonus de statut de +1 aux tests de compétences.</li>\n<li><strong>Étoiles</strong> La créature du Tourment obtient un bonus de +1 aux jets de sauvegarde.</li>\n<li><strong>Couronnes</strong> La créature du Tourment peut relancer 1 test au cours de la prochaine minute et prendre le résultat le plus élevé. C'est un effet de chance.</li>\n</ul>"
        },
        "Effect: Harmonizing Aura (Enemies)": {
            "name": "Effet : Aura d'harmonisation (Ennemis)",
            "description": "<p>La créature obtient un bonus de statut de -2 aux jets de dégâts de son et un bonus de statut de -1 à la CA et à tous les jets de sauvegarde contre les effets de son et audibles.</p>",
            "rules": {
                "0": {
                    "label": "Aura d'harmonisation"
                },
                "1": {
                    "label": "Aura d'harmonisation"
                }
            }
        },
        "Effect: Viscous Trap": {
            "name": "Effet : Piège visqueux",
            "description": "<p>La créature subit une pénalité de circonstances de -4,5 mètres à toutes ses Vitesses.</p>"
        },
        "Effect: Goblin Song": {
            "name": "Effet : Chant gobelin",
            "description": "<p>La créature subit une pénalité de statut de -1 aux test de Perception et aux jets de Volonté.</p>"
        },
        "Effect: Commanding Aura (Quara)": {
            "name": "Effet : Aura de commandement (Quara)",
            "description": "<p>Accordé par @UUID[Compendium.pf2e.abomination-vaults-bestiary.Actor.JrowrtDilEG8dN2s]{Quara Orshendiel}</p>\n<p>Les drows autour de Quara sont ragaillardis par sa présence. Ses alliés drows dans l'aura obtiennent un bonus de statut de +1 aux jets d'attaque et de compétences.</p>"
        },
        "Effect: Drink Emotions": {
            "name": "Effet : Boire les émotions",
            "description": "<p>Lorsqu'il est excité, l'empathe insensible subit une pénalité de –1 à la CA, obtient un bonus de statut de +1 à ses jets d'attaque et inflige 1d4 dégâts mentaux supplémentaires avec ses Frappes au corps-à-corps.</p>"
        },
        "Effect: Transfer Protection": {
            "name": "Effet : Transfert de protection",
            "description": "<p>La créature obtient un bonus de statut de +1 à la CA et aux jets de sauvegardecontre les créatures mauvaises.</p>"
        },
        "Effect: Countered by Fire": {
            "name": "Effet : Contré par le feu",
            "description": "<p>La créature subit une pénalité de circonstances de -1 à ses jets d'attaques et à sa CA, et sa Frappe de mâchoire n'inflige par des dégâts d'électricité</p>"
        },
        "Effect: Under Command": {
            "name": "Effet : Sous les ordres",
            "description": "<p>Sous les ordres d'un capitaine de la garde.</p>"
        },
        "Effect: Assimilate Lava": {
            "name": "Effet : Assimiler la lave",
            "description": "<p>Un golem d'obsidienne qui s'immerge dans la lave ou le magma ne subit aucun dégât et, tant qu'il reste immergé de la sorte, il devient Ralenti 2 et obtient Guérison accélérée 15.</p>"
        },
        "Effect: Prepare Fangs": {
            "name": "Effet : Préparation des crochets",
            "description": "<p>Les dagues infligent des dégâts de poison égaux à la valeur de contre.</p>"
        },
        "Effect: Aura of Protection (Solar)": {
            "name": "Effet : Aura de protection (Solar)",
            "description": "<p>Les alliés dans l'aura du solar gagnent un bonus de statut de +2 à leur CA contre les créatures impies et un bonus de statut de +2 contre ces dernières. Ce bonus passe à +4 contre le contrôle par des créatures impies et les attaques par des créatures impies convoquées.</p>"
        },
        "Effect: Regression": {
            "name": "Effet : Régression",
            "description": "<p>La créature rétrécit d'une taille et toutes les maîtrises de la cible qui sont expertes ou supérieures sont ramenées à qualifiées.</p>"
        },
        "Effect: Psychic Daze": {
            "name": "effet : Hébètement psychique"
        },
        "Effect: Guildmaster's Lead": {
            "name": "Effet : L'exemple de la maîtresse de guilde"
        },
        "Effect: Rope Snare": {
            "name": "Effet : Corde d'enchevêtrement",
            "description": "<p>La créature subit une pénalité de circonstances de -3 m à sa Vitesse.</p>"
        },
        "Effect: Fiddle": {
            "name": "Effet : Stridulation",
            "description": "<p>Un air de viole entraînant pousse la créature à danser</p>\n<p><strong>Échec</strong> La créature est @UUID[Compendium.pf2e.conditionitems.Item.AJh5ex99aV6VTggg]{Prise au dépourvu} et subit une pénalité de statut de -3 mètres à ses Vitesses.</p>\n<p><strong>Échec critique</strong> Tout comme échec mais la créature est également @UUID[Compendium.pf2e.conditionitems.Item.xYTAsEpcJE1Ccni3]{Ralentie 1}.</p>"
        },
        "Effect: Energy Ward": {
            "name": "Effet : Protection énergétique",
            "description": "<p>La créature obtient une résistance 15 aux dégâts déclencheurs, remplacant tout autre resistance obtenue de cette capacité. Les frappes au corps-à-corps de la créature infligent aussi 4d10 dégâts supplémentaires de ce type.</p>"
        },
        "Effect: Glowing Spores": {
            "name": "Effets : Spores brillantes",
            "description": "<p>La créature subit une pénalité de -4 à ses tests de Discrétion.</p>"
        },
        "Effect: Fetid Fumes": {
            "name": "Effet : Vapeurs fétides",
            "description": "<p>Tout ce qui est contenu dans l'aura est Masqué par la fumée.</p>"
        },
        "Effect: Breach the Abyss - Fire": {
            "name": "Effet : Brèche des Failles extérieures - feu",
            "description": "<p>La créature inflige @Damage[2d6[fire]]{2d6 dégâts de feu} supplémentaires avec son arme.</p>"
        },
        "Effect: Bond in Light": {
            "name": "Effet : Lié à la lumière",
            "description": "<p>La créature brille d'une lumière vive dans un rayon de 6 mètres et d'une lumière faible jusqu'à 12 mètres et a une @UUID[Compendium.pf2e.bestiary-ability-glossary-srd.Item.fJSNOw4zHGbIm4bZ]{Guérison rapide 10}</p>"
        },
        "Effect: Pollution Infusion": {
            "name": "Effet : Imprégnation de pollution"
        },
        "Effect: Consume Memories": {
            "name": "Effet : Absorption de la mémoire",
            "description": "<p>Vordakai obtient un bonus de statut à tous les tests de compétence pendant une minute du fait d'Absorption de la mémoire.</p>"
        },
        "Effect: Filth Wave": {
            "name": "Effet : Vague de fange",
            "description": "<p>La créature subit une pénalité de -3 m à ses Vitesses.</p>"
        },
        "Effect: Blood Frenzy": {
            "name": "Effet : Frénésie de sang",
            "description": "<p>La créature gagne des PV temporaires et d'autres effets en fonction de la créature spécifique.</p>"
        },
        "Effect: Vulnerable to Curved Space": {
            "name": "Effet : Vulnérable aux espaces courbes",
            "description": "<p>Quand le chien de Tindalos n'est pas adjacent à un angle de 90º (ou plus aigu), sa résistance aux dégâts physiques est suspendue et il est Malade/nauséeux 1.</p>"
        },
        "Effect: Bloodline Magic (Stirvyn Banyan)": {
            "name": "Effet : Magie de lignage (Stirvyn Banyan)",
            "description": "<p>Quand Stirvyn lance un sort de lignage, une résurgence de souvenirs ancestraux lui confère à lui ou à la cible du sort un bonus de statut de +1 aux tests de compétence pendant un round.</p>"
        },
        "Effect: Fold Form": {
            "name": "Effet : Forme pliée",
            "description": "<p>Le kinzaruk déplie et replie rapidement son corps sous une nouvelle forme choisie parmi les options de <em>Forme animale</em>. Cela lui accorde les Vitesses de déplacement et les Frappes de la forme choisie, mais aucun de ses autres avantages. Son bonus à l'attaque reste inchangé et son bonus aux dégâts est de +3.</p>"
        },
        "Effect: Inspired Recitation": {
            "name": "Effet : Discours inspiré",
            "description": "<p>Tous les alliés dans les 18 m obtiennent un bonus de statut de +1 aux jets de sauvegarde et 10 points de vie temporaires pendant 1 minute.</p>"
        },
        "Effect: Void Shroud": {
            "name": "Effet : Linceul de néant",
            "description": "<p>Des créatures vivantes dans l'émanation subissent une pénalité de -2 aux jets contre les effets de peur et de mort.</p>"
        },
        "Effect: Beacon of the Rowan Guard": {
            "name": "Effet : Lanterne de la Garde sorbier",
            "description": "<p>Lorsqu'elle est au sein de l'émanation, une créature avec le trait élémentaire et soit le trait plante, soit le trait bois obtient guérison accélérée 10 et un bonus de circonstances de +2 à tous les jets d'attaque et de dégâts.</p>"
        },
        "Effect: Necrotic Field": {
            "name": "Effet : Champ nécrotique",
            "description": "<p>Les morts-vivants dans l'aura infligent @Damage[1d6[void]]{1d6 dégâts de vide} supplémentaires avec leurs attaques naturelles.</p>"
        },
        "Effect: Curse of Boiling Blood": {
            "name": "Effet : Malédiction du sang bouillonnant",
            "description": "<p>La créature obtient une faiblesse au feu 20.</p>"
        },
        "Effect: Replenishment of War (Endlo)": {
            "name": "Effet : Récupération martiale",
            "description": "<p>Lorsqu'Endlo inflige des dégâts à une créature en la Frappant avec une Frappe d'épée à deux mains, il obtient 6 points de vie temporaires jusqu'à la fin de son prochain tour. Si la Frappe est un coup critique, il obtient 12 points de vie temporaires.</p>"
        },
        "Effect: Slime Trap": {
            "name": "Effet : Piège de gluant",
            "description": "<p>La créature subit une pénalité de circonstances de -3 mètres à ses Vitesses.</p>"
        },
        "Effect: Rapid Evolution - Husk": {
            "name": "Effet : Évolution rapide - Dépouille",
            "description": "<p>La créature obtient une résistance aux dégâts physiques similaire au type déclencheur.</p>"
        },
        "Effect: Impaling Chain": {
            "name": "Effet : Chaîne empaleuse",
            "description": "<p>La cible est empalée et clouée sur place et est @UUID[Compendium.pf2e.conditionitems.Item.kWc1fhmv9LBiTuei]{Empoignée/Agrippée} par la chaîne. La créature est incapable de récupérer des dégâts de saignement tant qu'elle ne s'est pas libérée.</p>"
        },
        "Effect: Snake Form": {
            "name": "Effet : Forme de serpent",
            "description": "<p>La Frappe de queue du bunyip obtient une allonge de 3 m et @UUID[Compendium.pf2e.bestiary-ability-glossary-srd.Item.Tkd8sH4pwFIPzqTr]{Agrippement/Empoignade} mais sa Frappe de mâchoires perd ses dégâts de saignement.</p>",
            "rules": {
                "0": {
                    "text": "<p>@Localize[PF2E.AttackEffects.IncreasedReach5]</p><hr /><p><strong><span class='pf2-icon'>1</span> @Localize[PF2E.AttackEffectGrab]</strong> ({item|name})</p>@Localize[PF2E.NPC.Abilities.Glossary.Grab]"
                }
            }
        },
        "Effect: Totems of the Past": {
            "name": "Effet : Totems du passé",
            "description": "<p>Tout allié homme-lézard dans la zone est inspiré, obtenant un bonus de statut de +1 aux jets d'attaque.</p>"
        },
        "Effect: Stoke the Fervent (High Tormentor)": {
            "name": "Effet : Raviver le fervent - Grand Bourreau",
            "description": "<p>Chaque allié entendant l'appel obtient un bonus de statut de +4 à ses jets d'attaque et de dégâts, un bonus de +2 à ses jets de sauvegarde et subit une pénalité de statut de -2 à sa CA. Les alliés affectés doivent utiliser au minimum une de leurs actions pour Frapper à chaque tour, s'ils le peuvent (même si cela implique d'attaquer un allié, un objet ou le vide).</p>\n<p><em>La durée de l'effet a été fixée à une durée moyenne pour [[/br 2d4 #rounds]]{2d4 rounds}. Fixez la durée correcte lorsque l'effet est ajouté.</em></p>"
        },
        "Effect: Leader's Command": {
            "name": "Effet : Ordre du meneur",
            "description": "<p>Les créatures obtiennent selon le choix du meneur, un bonus de statut de +2 aux jets d'attaques ou un bonus de statut de +3 mètres à ses Vitesses.</p>"
        },
        "Effect: Inspire Defense (Love Siktempora)": {
            "name": "Effet : Inspiration défensive (Siktempora de l'amour)",
            "description": "<p>La créature obtient un bonus de statut de +2 à la CA et aux jets de sauvegarde ainsi qu'une résistance 4 aux dégâts physiques.</p>",
            "rules": {
                "0": {
                    "label": "Inspiration défensive"
                }
            }
        },
        "Effect: Waterlogged": {
            "name": "Effet : Gorgé d'eau",
            "description": "<p>Lorsqu'il est gorgé d'eau, le berberoka peut utiliser Aspersion d'eau, leur taille devient gigantesque et sa Vitesse est réduit à 4,5 m.</p>"
        },
        "Effect: Rune of Flames (Rock)": {
            "name": "Effet : Rune de Flammes (Rocher)",
            "description": "<p>Le rocher inflige 3d6 dégâts de feu supplémentaires sur toutes les attaques.</p>",
            "rules": {
                "0": {
                    "label": "Rune de flammes"
                }
            }
        },
        "Effect: Breach the Abyss": {
            "name": "Effet : Brèche des Failles extérieures",
            "description": "<p>L'arme inflige 2d6 dégâts suplémentaires. Lancez 1d20 pour en déterminer le type :</p>\n<ul>\n<li>1-7 acide</li>\n<li>8-9 froid</li>\n<li>10-11 électricité</li>\n<li>12-18 feu</li>\n<li>19-20 vide</li>\n</ul>"
        },
        "Effect: Revert Form": {
            "name": "Effet : Reprendre sa forme",
            "description": "<p>La créature obtient un bonus de statut de +2 aux jets d'attaque, aux jets de dégâts, aux jets de sauvegarde et les tests de compétence.</p>"
        },
        "Effect: Active Mutagen": {
            "name": "Effet : Mutagène actif",
            "description": "<p>Darius possède un mutagène actif.</p>"
        },
        "Effect: Moon Frenzy": {
            "name": "Effet : Frénésie lunaire",
            "description": "<p>La créature gagne une taille, augmente son allonge de 1,5 m et augmente les dégâts de sa Frappe de mâchoire (ou une Frappe similaire) de 2.</p>"
        },
        "Effect: Rune of Smiting (Greatsword)": {
            "name": "Effet : Rune de destruction (épée à deux mains)",
            "description": "<p>Lorsque l'épée à deux mains touche, le géant peut Repousser la cible de 3 m ou de 6 m sur un coup critique.</p>",
            "rules": {
                "0": {
                    "text": "{item|system.description.value}"
                }
            }
        },
        "Effect: Curl Up": {
            "name": "Effet : S'enrouler",
            "description": "<p>La créature obtient un bonus de circonstances de +2 à la CA.</p>"
        },
        "Effect: Form a Phalanx": {
            "name": "Effet : Formation en phalange",
            "description": "<p>La créature obtient un bonus de circonstances de +2 à la CA.</p>"
        },
        "Effect: Bloom Regeneration": {
            "name": "Effet : Floraison régénératrice",
            "description": "<p>Pendant les 4 rounds suivant, la créature obtient régénération 10. Cette régénération peut être désactivée par des dégâts spirituels saint ou de fer froid.</p>"
        },
        "Effect: Drain Luck": {
            "name": "Effet : Drain de chance",
            "description": "<p>La créature obtient une pénalité de statut à tous ses tests.</p>"
        },
        "Effect: Hamstring": {
            "name": "Effet : Tranche tendon",
            "description": "<p>La cible subit une pénalité de statut de -3 m à ses Vitesses</p>"
        },
        "Effect: Fiery Form": {
            "name": "Effet : Forme embrasée",
            "description": "<p>La guenaude de sang obtient le trait feu et une Vitesse de vol de 18 mètres, devient immunisée au feu et émet autant de lumière qu'une torche.</p>"
        },
        "Effect: Ancestral Journey": {
            "name": "Effet : Voyage ancestral",
            "description": "<p>La créature obtient un bonus de statut de +1 aux jets de Volonté et à tous les jets de compétence.</p>"
        },
        "Effect: Wrath of Fate": {
            "name": "Effet : Courroux du destin",
            "description": "<p>Une créature affectée peut choisir de lancer deux fois loersqu'il tente une attaque, un jet de Réflexes ou un test de compétence et prend le résultat inférieur. Après celà l'effet se termine.</p>"
        },
        "Effect: Stoke the Fervent": {
            "name": "Effet : Raviver le fervent",
            "description": "<p>Chaque allié entendant cet appel obtient un bonus de statut de +1 à ses jets d'attaque, de dégâts et de sauvegarde et subit une pénalité de statut de –1 à sa CA. Les alliés affectés doivent utiliser au minimum une de leurs actions pour Frapper à chaque tour, s'ils le peuvent (même si cela implique d'attaquer un allié, un objet, ou le vide).</p>\n<p><em>La durée de l'effet a été fixée sur la durée moyenne de [[/br 2d4 #rounds]]{2d4 rounds}. Fixez la durée à la valeur correcte lorsque l'effet est ajouté.</em></p>"
        },
        "Effect: Ancestral Response": {
            "name": "Effet : réponse ancestrale",
            "description": "<p>La créature obtient un bonus de circonstances de +2 sur les jets de sauvegarde.</p>"
        },
        "Effect: Hunted Fear": {
            "name": "Effet : Chasse terrifiante",
            "description": "<p>La créature subit une pénalité de circonstances de -2 aux tests de Survie pour éviter de se perdre.</p>"
        },
        "Effect: Draconic Breath Weapon Aura": {
            "name": "Effet : Aura d'arme de souffle draconique",
            "description": "<p>Après avoir utilisé son Arme de souffle, une aura entoure le corps du dragon déclencheur pendant 1 round.</p>"
        },
        "Effect: Shadow Rapier": {
            "name": "Effet : Rapière des ombres",
            "description": "<p>Le débaucheur cadavérique enveloppe son épée d'énergie de vide, changeant le type de dégâts en dégâts de vide.</p>",
            "rules": {
                "0": {
                    "text": "{item|system.description.value}"
                }
            }
        },
        "Effect: Runic Resistance": {
            "name": "Effet : Résistance runique",
            "description": "<p>La créature obtient une résistance 5 à un type dégâts.</p>"
        },
        "Effect: Lantern of Hope (Gestalt)": {
            "name": "Effet : Lanterne d'espoir (Gestalt)",
            "description": "<p>La créature obtient un bonus de statut de +3 à ses jets de dégâts et aux jets de sauvegarde contre @UUID[Compendium.pf2e.spells-srd.Item.GaRQlC9Yw1BGKHfN]{Vague de désespoir}.</p>",
            "rules": {
                "1": {
                    "label": "Lanterne d'espoirt (contre Vague de désespoir)"
                }
            }
        },
        "Effect: Sting of the Lash": {
            "name": "Effet : Piqûre du fouet",
            "description": "<p>La créature obtient 5 points de vie temporaires.</p>"
        },
        "Effect: Resonance": {
            "name": "Effet : Résonance",
            "description": "<p>La créature obtient un bonus de statut de +1 à ses jets d'attaque et de dégâts pour les effets avec le trait choisi : une créature avec le trait élémentaire et le trait sélectionné bénéficie de ce bonus à tous ses jets d'attaques et de dégâts.</p>"
        },
        "Effect: Rune of Destruction (Greatsword)": {
            "name": "Effet : Rune de destruction (épée à deux mains)",
            "description": "<p>L'épée à deux mains obtient le trait mortel 3d12 et une créature touchée avec l'épée à deux mains est @UUID[Compendium.pf2e.conditionitems.Item.4D2KBtexWXa6oUMR]{Drainée 1} à moins qu'elle n'obtienne un succès sur un jet de @Check[type:fortitude|dc:35|name:Rune of Destruction|traits:arcane].</p>",
            "rules": {
                "0": {
                    "text": "{item|system.description.value}"
                }
            }
        },
        "Effect: Rune of Destruction (Longspear)": {
            "name": "Effet : Rune de destruction (Pique)",
            "description": "<p>La pique obtient le trait mortel 3d8 et une créature touchée avec la pique est @UUID[Compendium.pf2e.conditionitems.Item.4D2KBtexWXa6oUMR]{Drainée 1} à moins de réussir un jet de @Check[type:fortitude|dc:35|name:Rune of Destruction|traits:arcane].</p>",
            "rules": {
                "0": {
                    "text": "{item|system.description.value}"
                }
            }
        },
        "Effect: Profane Gift": {
            "name": "Effet : Don profane",
            "description": "<p>La créature obtient un bonus de statut de +1 aux jets d'attaque, aux tests de compétence et aux jets de sauvegarde.</p>"
        },
        "Effect: Hallucinogenic Pollen (Critical Failure)": {
            "name": "Effet : Pollen hallucinogène (Échec critique)",
            "description": "<p>La créature subit une pénalité de statut de -4 aux tests de Perception et aux jets de sauvegarde contre les effets mentaux.</p>"
        },
        "Effect: Lost Plates": {
            "name": "Effet : Plaques perdues",
            "description": "<p>La créature subit une pénalité de statut à la CA égale au nombre de plaques perdues.</p>"
        },
        "Effect: Phantasmagoric Fog": {
            "name": "Effet : Brouillard fantasmagorique",
            "description": "<p>Le hall se remplit d'une brume violette qui impose une pénalité de circonstances de -2 aux tests de Perception à toutes les créatures à l'intérieur et exposes quiconque pénètre dans le brouillard fantasmagorique.</p>"
        },
        "Effect: Invigorating Passion": {
            "name": "Effet : Passion stimulante",
            "description": "<p>La créature obtient un bonus de statut de +1 aux jets d'attaques et 10 points de vie temporaires.</p>"
        },
        "Effect: Commander's Aura": {
            "name": "Effet : Aura de commandement",
            "description": "<p>La créature obtient un bonus de circonstances de +1 aux jets d'attaques, aux jets de dégâts, à la CA, aux jets de sauvegarde et aux tests de compétence.</p>"
        },
        "Effect: Impersonated Ability": {
            "name": "Effet : Capacité d'imposteur",
            "description": "<p>L'imposteur Noppera-Bo choisit parme ses capacités d'imposteur.</p>"
        },
        "Effect: Hydra Heads": {
            "name": "Effet : Têtes de l'hydre",
            "description": "<p>Le nombre de têtes que l'hydre possède actuellement.</p>"
        },
        "Effect: Defensive Slice": {
            "name": "Effet : Frappe et entaille",
            "description": "<p>Le baron Drélev se met en position défensive avec son arme dégainée, puis tente un Frappe au corps-à-corps. Il subit une pénalité de statut de -2 sur toutes ses Frappes (incluant celle-ci) et gagne un bonus de statut de +2 à sa CA jusqu'au début de son prochain tour.</p>"
        },
        "Effect: Cite Precedent": {
            "name": "Effet : Citer un précédent",
            "description": "<p>La créature obtient une pénalité de circonstances de -2 sur leur prochain test de Diplomatie dans un débat juridique.</p>"
        },
        "Effect: Pulse of Rage": {
            "name": "Effet : Pulsion de rage",
            "description": "<p>La créature subit une pénalité de statut de -1 à sa CA</p>"
        },
        "Effect: Oceanic Armor": {
            "name": "Effet : Armure océanique",
            "description": "<p>La créature obtient un bonus de circonstances de +2 à la CA.</p>"
        },
        "Effect: Artificer's Command": {
            "name": "Effet : Ordre de l'artificier",
            "description": "<p>La créature obtient un bonus de statut aux jets d'attaque, aux jets de dégâts et aux jets de sauvegarde.</p>"
        },
        "Effect: Dirty Bomb": {
            "name": "Effet : Bombe sale",
            "description": "<p>La créature subit une pénalité de circonstances de -2 aux jets de Vigueur contre les Bombes sales du chimiste.</p>"
        },
        "Effect: Phalanx Fighter": {
            "name": "Effet : Guerrier de phalange",
            "description": "<p>Une créature obtient un bonus de circonstances de +1 à sa CA</p>"
        },
        "Effect: Harrowing Misfortune": {
            "name": "Effet : Infortune du tourment",
            "description": "<p>La créature doit faire deux jets et choisir le moins bon sur son prochain jet d'un type spécifique déterminé par la couleur de la carte. Les couleurs et leurs effets sont : Marteaux (jet d'attaque au corps-à-corps), Clés (jet de Réflexes), Boucliers (jet de Vigueur), Livres (test de compétence), Étoiles (jet de Volonté) et Couronnes (jet d'attaque de sort).</p>"
        },
        "Effect: Defensive Assault": {
            "name": "Effet : Assaut défensif",
            "description": "<p>La créature obtient un bonus de circonstances à la CA basées sur les armes utilisées pour se défendre.</p>"
        },
        "Effect: Brutal Rally": {
            "name": "Effet : Mobilisation par la violence",
            "description": "<p>La créature obtient un bonus de circonstances de +1 aux jets d'attaque.</p>"
        },
        "Effect: Spotlight": {
            "name": "Effet : Lumière des spots",
            "description": "<p>La cible obtient un bonus de statut de +2 aux tests de Représentation et une résistance 10 aux dégâts mentaux.</p>"
        },
        "Effect: Soul Lock (Healing)": {
            "name": "Effet : Verrou d'âme (Guérison)",
            "description": "<p>Le fiélon gagne @UUID[Compendium.pf2e.bestiary-ability-glossary-srd.Item.fJSNOw4zHGbIm4bZ]{Guérison accélérée 5} pendant 1 minute</p>"
        },
        "Effect: Devour Soul (Victim Level 15 or Higher)": {
            "name": "Effet : Engloutissement d'âme (niveau de la victime 15 ou supérieur)",
            "description": "<p>La créature obtient 10 pv temporaires et un bonus de statut de +2 aux jets d'attaque et de dégâts.</p>"
        },
        "Effect: Roast": {
            "name": "Effet : Rôtir",
            "description": "<p>Les créatures qui ont été Rôties subissent une pénalité de circonstances de -2 aux jets de sauvegarde contre Servir.</p>"
        },
        "Effect: Spiritual Warden": {
            "name": "Effet : Gardien spirituel",
            "description": "<p>Les alliés dans l'aura obtiennent un bonus de statut de +2 à leurs jets de sauvegarde contre les effets de mort saving throws against death effects et les effets qui ciblent ou manipulent leurs âmes.</p>"
        },
        "Effect: Choose Weakness": {
            "name": "Effet : Choix des faiblesses",
            "description": "<p>Un ghaéle modifie les dégâts élémentaires infligés par son épée à deux mains et par son rayon de lumière en dégâts d'acide, d'électricité, de feu ou de son. Il peut aussi modifier sa résistance aux énergies à n'importe quel type d'énergie (elle peut être d'un type différent de celle qu'il utilise pour ses attaques).</p>"
        },
        "Effect: Swell": {
            "name": "Effet : Gonfler",
            "description": "<p>Le monstre melfesh gonfle avec du gaz pendant 1 minute. Il atteint la taille Très grande et son allonge passe à 4,5 mètres. Il obtient aussi 12 Points de vie temporraires, une résistance contondant 5 et un bonus de statut de +2 aux jets d'attaque.</p>"
        },
        "Effect: Fanatical Frenzy": {
            "name": "Effet : Frénésie fanatique",
            "description": "<p>La créature obtient un bonus de statut de +1 aux jets d'attaque et un bonus de +2 aux jets de dégâts et subit une pénalité de statut de -2 à la CA.</p>"
        },
        "Effect: Silent Aura": {
            "name": "Effet : Aura silencieuse",
            "description": "<p>Un harceleur silencieux n'émet aucun son, ce qui empêche les créatures de le remarquer à l'aide de l'ouïe ou d'un sens similaire. Ce silence arrête tout son en son sein ou le traversant. Le harceleur silencieux et toutes les créatures situées dans son aura ne peuvent pas utiliser d'attaques soniques ou d'actions ayant le trait audible : cela empêche les créatures de lancer des sorts à composantes verbales ou d'activer des objets à composante à base d'ordres.</p>"
        },
        "Effect: Death Gasp (Etioling)": {
            "name": "Effet : Soupir de mort (Étiolant)",
            "description": "<p>La créature obtient les traits mort-vivant et intangible, une Vitesse de vol de 7,5 m, une résistance de 10 à tous les dégâts (sauf les dégâts de force, les dégâts spectraux ou de vitalité doublée contre les dégâts non magiques) et devient immunisée aux dégâts de saignement, aux effets de mort, à la maladie, à la paralysie, au poison et au sommeil.</p>"
        },
        "Effect: Incendiary Dollop": {
            "name": "Effet : Dollop incendiaire",
            "description": "<p>Pendant la prochaine minute ou jusqu'à ce qu'une créature gratte la graisse de dollop avec une action Interagir, le DD des tests de la créature pour récupérer des dégâts de feu persistants est augmenté de 2.</p>"
        },
        "Effect: Blood Siphon (Critical Failure)": {
            "name": "Effet : Siphon de sang (Échec critique)",
            "description": "<p>La créature obtient un bonus de statut de +2 à la CA et aux jets de sauvegarde et est accélérée. Elle peut utiliser son action supplémentaire seulement pour Marcher rapidement.</p>"
        },
        "Effect: Sixfold Flurry": {
            "name": "Effet : Déluge sextuplé",
            "description": "<p>La créature obtient un bonus de circonstances à la CA en fonction des Frappes qu'elle a choisi de ne pas faire.</p>"
        },
        "Effect: Overtake Soul": {
            "name": "Effet : Submersion d'âme"
        },
        "Effect: Breach the Abyss - Negative": {
            "name": "Effet : Brèche dans les Failles extérieures - vide",
            "description": "<p>La créature inflige @Damage[2d6[void]]{2d6 dégâts de vide} supplémentaires avec son arme.</p>"
        },
        "Effect: Lightning Powered": {
            "name": "Effet : Puissance électrique",
            "description": "<p>Pour chaque zombie électrique dans un rayon de 9 mètres, le zombie électrique obtient Guérison accélérée 2 (jusqu'à un maximum de Guérison accélérée 10).</p>"
        },
        "Effect: Howl of Vengeful Fury": {
            "name": "Effet : Hurlement de la furie vengeresse",
            "description": "<p>Les thatchlings obtiennent 5 Points de vie temporaires et un un bonus de statut de +1 à leurs Frappes et aux jets de sauvegarde.</p>"
        },
        "Effect: Sacrifice Armor": {
            "name": "Effet : Armure sacrifiée",
            "description": "<p>La CA du scrapborn est diminué pendant 24 heures. Utilisée de cette manière, la CA du scrapborn ne peut pas être réduite en-dessous de 16.</p>"
        },
        "Effect: Crush of Hundreds": {
            "name": "Effet : Foule écrasante",
            "description": "<p>La créature subit une pénalité de -3 m à toutes ses Vitesses.</p>"
        },
        "Effect: Powder Burst": {
            "name": "Effet : Nuage de poudre",
            "description": "<p>pénalité de statut de -2 aux tests de perception et aux jets de sauvegarde contre les effets mentaux.</p>"
        },
        "Effect: Aura of Growth": {
            "name": "Effet : Aura de croissance",
            "description": "<p>Les autres créatures ayant le trait plante obtiennent Guérison accélérée 20 tant qu'ellessont dans la zone.</p>"
        },
        "Effect: Ill Omen": {
            "name": "Effet : Mauvais augure",
            "description": "<p>La créature subit une pénalité de -1 aux jets d'attaque, de compétence et de sauvegarde tant qu'elle reste dans l'aura de mauvais augure et devient immunisée aux effets de fortune pendant 1 jour.</p>"
        },
        "Effect: Black Cat Curse": {
            "name": "Effet : Malédiction du chat noir",
            "description": "<p><strong>Effet</strong> Madame Lueur-du-Crépuscule crie, avec beaucoup de haine, une malédiction envers une créature qu'elle peut voir et à moins de 9 m. Si la cible échoue à son jet de @Check[type:will|dc:32], elle doit lancer deux dés et garder le moins bon lorsqu'elle tente un jet d'attaque ou de sauvegarde. Ensuite, la cible est temporairement immunisée pendant 24 heures. La malédiction dure jusqu'à ce qu'elle soit ôtée ou que la cible réussisse un jet de sauvegarde contre elle. La victime peut tenter un nouveau jet de @Check[type:will|dc:32] une fois par heure pour mettre un terme à la malédiction.</p>"
        },
        "Effect: Field of Undeath": {
            "name": "Effet : Champ de morts-vivants",
            "description": "<p>Les alliés dans l'aura qui ont Guérison du vide obtiennent Guérison accélérée.</p>"
        },
        "Effect: Pinpoint Weakness": {
            "name": "Effet : Identifier la faiblesse",
            "description": "<p>Tsimaan met le doigt sur la faiblesse d'une créature dans les 9 mètres. Tsiman et tous ses alliés qui peuvent la voir et l'entendre, obtiennent un bonus de statut de +1 à leurs jets d'attaque et de dégâts contre cette créature jusqu'au début du prochain tour de Tsiman.</p>",
            "rules": {
                "0": {
                    "label": "Identifier la faiblesse"
                }
            }
        },
        "Effect: Activate Defenses": {
            "name": "Effet : Activation des défenses",
            "description": "<p>La créature obtient un bonus de circonstances de +2 à sa CA</p>"
        },
        "Effect: Feed": {
            "name": "Effet : Alimentation",
            "description": "<p>La créature obtient un bonus de statut à ses tests et à ses DD en fonction de l'utilisation de sa capacité Alimentation.</p>"
        },
        "Effect: Stink Sap": {
            "name": "Effet : Sève puante",
            "description": "<p>Les créatures et leur équipement enduit de sève sentent horriblement mauvais. Les créatures dans l'aura doivent tenter un jet de @Check[type:fortitude|dc:16]. En cass d'échec, la créature est @UUID[Compendium.pf2e.conditionitems.Item.fesd1n5eVhpCSS18]{Malade/nauséeuse 1} et en cas d'échec critique, la créature est aussi @UUID[Compendium.pf2e.conditionitems.Item.dfCMdR4wnpbYNTix]{Étourdie 1}. Tant qu'elle se trouve dans l'aura, la créature subit une pénalité de circonstances de -2 aux jets de sauvegarde pour se remettre de l'état malade/nauséeux. Une créature qui réussit son jet de sauvegarde est immunisée contre la sève puante pendant 1 minute. Les créatures ne font pas de jet de sauvegarde contre cet effet en mode exploration et ne sont pas temporairement immunisées mais les créatures recouvertes de sève puante doivent effectuer un jet contre leur propre aura lorsqu'elles effectuent leur test d'initiative en mode rencontre. La sève se dissipe au bout de 10 heures. Passer 10 minutes à frotter la sève avec de l'eau et du savon réduit la durée de 1 heure.</p>"
        },
        "Effect: Sylvan Wine": {
            "name": "Effet : Vin sylvestre",
            "description": "<p>La créature obtient un bonus d'objet de +1 aux jets de Volonté et un bonus d'objet de +3 aux jets de Volonté contre les effets de peur.</p>"
        },
        "Effect: Witchflame (Success)": {
            "name": "Effet : Flammes ensorcelées (Succès)",
            "description": "<p>La créature obtient une faiblesse au feu 5.</p>"
        },
        "Effect: Infectious Aura": {
            "name": "Effet : Aura infectieuse",
            "description": "<p>La créature subit une pénalité de statut de -2 aux jets de sauvegarde contre les effets de maladie.</p>\n<p>Si une créature à portée contracte ou voit sa maladie progresser, toutes les créatures adjacentes sont exposées à la même maladie au même DD.</p>"
        },
        "Effect: Nature's Infusion": {
            "name": "Effet : Imprégnation naturelle",
            "description": "<p>Le blodeuwedd obtient 15 points de vie temporaires.</p>"
        },
        "Effect: Smash Kneecaps": {
            "name": "Effet : Pêter les rotules",
            "description": "<p>La Vitesse de la créature est réduide de 3 m.</p>"
        },
        "Effect: Death Gasp": {
            "name": "Effet : Soupir de mort",
            "description": "<p>La créature obtient le trait mort-vivant et devient immunisée aux dégâts de saignement, aux effets de mort, à la maladie, à la paralysie, au poison et au sommeil.</p>"
        },
        "Effect: Ganzi Resistance": {
            "name": "Effet : Résistance ganzi",
            "description": "<p>La créature obtient une résistance à l'acide, à l'électricité ou au son (choisi aléatoirement chaque jour) basé sur la créature spécifique.</p>"
        },
        "Effect: Harmonizing Aura (Allies)": {
            "name": "Effet : Aura d'harmonie (Alliés)",
            "description": "<p>La créature obtient un bonus de statut de +2 aux jets de dégâts de son et un bonus de statut de +1 à la CA et aux jets de sauvegarde contre les effets de son et audibles.</p>",
            "rules": {
                "0": {
                    "label": "Aura d'harmonie"
                },
                "1": {
                    "label": "Aura d'harmonie"
                }
            }
        },
        "Effect: Disturbing Vision": {
            "name": "Effet : Vision troublante",
            "description": "<p>Les visions durent [[/br 1d4 #rounds]]{1d4 rounds} et tant qu'elles sont là, toutes les créatures mauvaises dans la zone obtiennent un bonus de statut de +1 à tous les jets.</p>"
        },
        "Effect: Despoiler": {
            "name": "Effet : Affaiblissement",
            "description": "<p>La créature subit une pénalité de circonstances de -2 sur tous les jets de sauvegarde contre le poison, les maladies et les drogues.</p>"
        },
        "Effect: Poison Frenzy": {
            "name": "Effet : Déchaînement de poison",
            "description": "<p>L'avaleur de poison devient déchaîné durant 1 minute. Lorsqu'il est déchaîné, l'avaleur de poison obtient un bonus de statut de +1 aux jets d'attaque de ses Frappes au corps-à-corps, un bonus de statut de +4 aux jets de dégâts des mêmes Frappes et 20 points de vie temporaires jusqu'à ce que l'état cesse. Il subit aussi une pénalité de statut de -2 à sa CA.</p>"
        },
        "Effect: Bastion Aura": {
            "name": "Effet : Aura de bastion",
            "description": "<p>Toutes les créatures d'alignement bon dans l'aura bénéficient de Guérison accélérée 30 tant qu'elles restent à portée et elles obtiennent un bonus de statut de +2 aux jets d'attaque et de dégâts.</p>"
        },
        "Effect: Unsettled Aura": {
            "name": "Effet : Aura de perturbations",
            "description": "<p>Le gosreg projette un champ d'énergie discordante qui perturbe l'esprit des créatures pensantes. Toute créature qui n'est pas dénuée d'intelligence dans un rayon de 9 mètres d'un gosreg subit une pénalité de statut de -1 à ses jets de Volonté.</p>"
        },
        "Effect: War Leader": {
            "name": "Effet : Chef de guerre",
            "description": "<p>La créature obtient un bonus de statut de +1 aux jets d'attaque et aux tests de compétences.</p>"
        },
        "Effect: Witchflame (Failure)": {
            "name": "Effet : Flammes ensorcelées (échec)",
            "description": "<p>La créature obtient une faiblesse au feu 5.</p>"
        },
        "Effect: Brand of the Impenitent": {
            "name": "Effet : Marque de l'impénitent",
            "description": "<p>La créature subit une pénalité de statut de -1 à la CA et aux jets de sauvegarde, réduit ses résistances de 2 et obtient une faiblesse aux dégâts saints de 2.</p>"
        },
        "Effect: Protean Anatomy": {
            "name": "Effet : Anatomie protéenne",
            "description": "<p>La créature obtient une résistance à l'acide, à l'électricité ou au son en fonction de son Anatomie protéenne.</p>"
        },
        "Effect: Inspirational Presence": {
            "name": "Effet : Présence inspirante",
            "description": "<p>Chaque étudiant de dans l'aura de l'enseignant obtient un bonus de circonstances de +1 aux tests pour @UUID[Compendium.pf2e.actionspf2e.Item.1OagaWtBpVXExToo]{Se souvenir}.</p>"
        },
        "Effect: Uncanny Tinker": {
            "name": "Effet : bricolage ingénieux (Succès critique)",
            "description": "<p>La créature obtient un bonus de circonstances de +1 aux jets d'attaques.</p>"
        },
        "Effect: Crystalline Dust Form": {
            "name": "Effet : Forme de poussière cristalline",
            "description": "<p>La créature obtient une Vitesse de vol de 12 mètres.</p>"
        },
        "Effect: Breach the Abyss - Acid": {
            "name": "Effet : Brèche dans les Failles extérieures - Acide",
            "description": "<p>La créature inflige @Damage[2d6[acid]]{2d6 dégâts d'acide} supplémentaires avec son arme.</p>"
        },
        "Effect: Bully's Rage": {
            "name": "Effet : Rage de la brute",
            "description": "<p>La brute obtient un bonus de statut de +2 aux tests d'Intimidation et aux dégâts jusqu'à la fin de son tour.</p>"
        },
        "Effect: Tail Lash (Attack Roll)": {
            "name": "Effet : Coup de queue (jet d'attaque)",
            "description": "<p>La créature subit une pénalité de circonstances de -2 au jet d'attaque déclencheur.</p>"
        },
        "Effect: Breach the Abyss - Cold": {
            "name": "Effet : Brèche dans les Failles extérieures - froid",
            "description": "<p>La créature inflige @Damage[2d6[cold]]{2d6 dégâts de froid} supplémentaires avec son arme.</p>"
        },
        "Effect: Remove Face": {
            "name": "Effet : Ablation de visage",
            "description": "<p>La créature subit une pénalité permanente de -4 à ses jets de Charisme et aux compétences basées sur le Charisme. Cette pénalité ne peut être supprimée que si la victime retrouve son visage et qu'un sort de @UUID[Compendium.pf2e.spells-srd.Item.SnaLVgxZ9ryUFmUr]{Restauration} soit lancé sur elle.</p>"
        },
        "Effect: Chug": {
            "name": "Effet : Descendre d'un trait",
            "description": "<p>La créature obtient un bonus d'objet de +2 aux tests d'Athlétisme, aux jets de dégâts et aux jets de sauvegarde contre la peur</p>"
        },
        "Effect: Swig": {
            "name": "Effet : Rasade"
        },
        "Effect: No Quarter!": {
            "name": "Effet : Pas de quartier !",
            "description": "<p>Le capitaine ordonne à ses marins de combattre sans pitié. Toutes les créatures alliées de niveau égal ou inférieur se trouvant dans un rayon de 6 m du capitaine du navire gagnent un bonus de statut de +1 aux jets d'attaque et aux jets de dégâts jusqu'à la fin du prochain tour du capitaine du navire.</p>"
        },
        "Effect: Take Them Down!": {
            "name": "Effet : Abattez-les !",
            "description": "<p>La créature obtient un bonus de statut de +1 à ses jets d'attaque et de dégâts.</p>"
        },
        "Effect: Sticky Spores": {
            "name": "Effet : Spores gluants",
            "description": "<p>La créature subit une pénalité de statut de - 3 m à toutes ses Vitesses.</p>"
        },
        "Effect: Calming Bioluminescence": {
            "name": "Effet : Bioluminescence apaisante",
            "description": "<p>Les créatures obtiennent un bonus de circonstances de +2 à leurs jets de sauvegardes contre les effets d'émotion.</p>"
        },
        "Effect: Compelled Performance": {
            "name": "Effet : Représentation forcée",
            "description": "<p>La cible possède un bonus de statut de +2 aux tests de Représentation pendant 1 semaine.</p>"
        },
        "Effect: Blood Soak": {
            "name": "Effet : Imbibition de sang",
            "description": "<p>La créature obtient un bonus de statut de +4 aux jets de dégâts.</p>"
        },
        "Effect: Absorb Memories": {
            "name": "Effet : Absorber les souvenirs",
            "description": "<p>La créature obtient un bonus de statut de +1 à tous ses jets de compétences.</p>"
        },
        "Effect: PFS Level Bump": {
            "name": "Effet : Ajustement de niveau de la PFS",
            "description": "<p>Les scénarios et quêtes sont conçues pour défier les PJ dont le niveau moyen est le moins élevé parmi ceux de plusieurs niveaux donnés (ex <em>Niveaux 1–2</em> est conçu pour être un défi pour des PJ de niveau 1 et <em></em>Niveaux 3–4</em> est conçu pour être un défi pour des PJ de niveau 3). Normalement, lorsque le total de Points de défi détermine que la puissance moyenne du groupe est équivalente au plus haut des niveaux (ex niveau 2 pour niveaux 1–2), l'échelle sera ajustée.</p>\n<p>À l'inverse, parfois, il est nécessaire d'ajouter un ajustement de niveau, notamment lorsque le niveau du scénario est fonction d'un nombre de joueurs ou si le scénario manque un low tier d'échelle 16-18.</p>\n<ul>\n<li>Augmentez les modificateurs d'attaque, les dégâts de l'attaque, les dégâts de sort, les modificateurs de jets de sauvegarde, les modificateurs de compétences et de Perception et la CA de 1.</li>\n<li>Augmentez le nombre total de Points de vie de 10 ou de 10%, selon ce qui est le plus élevé.</li>\n</ul>"
        },
        "Effect: Inspiring Presence": {
            "name": "Effet : Présence inspirante",
            "description": "<p>La créature obtient un bonus de circonstances de +2 aux jets de sauvegarde contre les effets de peur.</p>"
        },
        "Effect: Fettering Fedora": {
            "name": "Effet : Fédora entravant",
            "description": "<p>La créature subit une pénalité de circonstances de -3 mètres à ses Vitesses.</p>"
        },
        "Effect: Adaptive Strike": {
            "name": "Effet : Frappe adaptative",
            "description": "<p>Les Frappes au corps-à-corps de la créature comptent soit comme de l'adamantium, du fer froid ou de l'argent.</p>"
        },
        "Effect: Dire Warning": {
            "name": "Effet : Avertissement funeste",
            "description": "<p>La créature obtient un bonus de statut de +1 aux jets d'attaques et de dégâts.</p>"
        },
        "Effect: Sanguine Rain": {
            "name": "Effet : Pluie de sang",
            "description": "<p>Les créatures qui tirent avantage de la consommation de sang (telles que les cherchesangs ou les vampires) gagnent Guérison accélérée 10 tant qu'elles restent dans la zone.</p>"
        },
        "Effect: Ensnare": {
            "name": "Effet : Prise au piège",
            "description": "<p>La créature subit une pénalité de statut de -3 m à sa Vitesse.</p>"
        },
        "Effect: Chemical Fertilizer": {
            "name": "Effet : Fertilisant chimique",
            "description": "<p>Obtient un bonus de statut de 4,5 mètres à sa Vitesse jusqu'à la fin de son prochain tour.</p>"
        },
        "Effect: Bosun's Command - Attack Bonus": {
            "name": "Effet : Ordre de bosco - Bonus d'attaque",
            "description": "<p>La créature obtient un onus de statut de +2 aux jets d'attaque.</p>"
        },
        "Effect: Instinctual Tinker (Critical Success)": {
            "name": "Effet : Bricoleur instinctif (Succès critique)",
            "description": "<p>La créature obtient un bonus de circonstances de +1 aux jets d'attaque.</p>"
        },
        "Effect: Distracting Giggle": {
            "name": "Effet : Rire distrayant",
            "description": "<p>Les créatures subissent une pénalité de statut de -1 aux jets de Volonté.</p>"
        },
        "Effect: Splintered Ground": {
            "name": "Effet : Champ d'esquilles",
            "description": "<p>La créature subit une pénalité de circonstances de -3 mètres à toutes ses Vitesses.</p>"
        },
        "Effect: Countered by Water": {
            "name": "Effet : Contré par l'eau",
            "description": "<p>La créature prend une pénalité de circonstances de -1 à ses jets d'attaques, et sa Frappe de mâchoire n'inflige pas des dégâts de feu</p>"
        },
        "Effect: Soul Siphon": {
            "name": "Effet : Siphon d'âme",
            "description": "<p>La créature gagne 5 points de vie temporaires et un bonus de statut de +1 à ses jets d'attaque et de dégâts.</p>"
        }
    },
    "mapping": {
        "description": "system.description.value",
        "gm": "system.description.gm",
        "rules": {
            "path": "system.rules",
            "converter": "translateRules"
        }
    }
}