{
    "label": "Bestiaire Saison 1 pfs",
    "entries": {
        "Gwibble (3-4)": {
            "name": "Gwibble (3-4)",
            "items": {
                "2I0RNOtr8FhBV3vM": {
                    "name": "Épee courte"
                },
                "2SD9Oew6CWLr3CAl": {
                    "name": "Auto-dénigrement",
                    "description": "<p>L'auto-dénigrement d'un mitflit fait qu'il est facile de l'influencer. Il subit une pénalité de -4 à son DD de Volonté sur les tests pour le @UUID[Compendium.pf2e.actionspf2e.Item.tHCqgwjtQtzNqVvd]{Contraindre}, le @UUID[Compendium.pf2e.actionspf2e.Item.2u915NdUyQan6uKF]{Démoraliser}, lui @UUID[Compendium.pf2e.actionspf2e.Item.OX4fy22hQgUHDr0q]{Faire bonne impression} et le @UUID[Compendium.pf2e.actionspf2e.Item.DCb62iCBrJXy0Ik6]{Solliciter}.</p>"
                },
                "9bBo9zCMB16QOTg3": {
                    "description": "<p>Le venin de vipère est un moyen simple, mais efficace d'améliorer une arme.</p>\n<hr />\n<p><strong>Activation</strong> <span class=\"action-glyph\">2</span> (manipulation)</p>\n<p><strong>Jet de sauvegarde</strong> @Check[type:fortitude|dc:18]</p>\n<p><strong>Durée maximale</strong> 3 rounds </p>\n<p><strong>Stade 1</strong> @Damage[1d8[poison]]{1d8 dégâts de poison} (1 round)</p>\n<p><strong>Stade 2</strong> @Damage[1d10[poison]]{1d10 dégâts de poison} (1 round)</p>\n<p><strong>Stade 3</strong> @Damage[2d6[poison]]{2d6 dégâts de poison} (1 round)</p>"
                },
                "I0tT0Am1Cyiko6ms": {
                    "skillVariants": {
                        "0": {}
                    }
                },
                "JBBP9K02ID8ktDLO": {
                    "name": "Empathie avec la vermine",
                    "description": "<p>Les mitflits peuvent utiliser Diplomatie pour utiliser @UUID[Compendium.pf2e.actionspf2e.Item.OX4fy22hQgUHDr0q]{Faire bonne impression} et @UUID[Compendium.pf2e.actionspf2e.Item.DCb62iCBrJXy0Ik6]{Solliciter} pour demander quelque chose à des arthropodes (insectes, araignées, scorpions, crabes et d'autres créatures invertébrées similaires). La plupart des arthropodes ont une attitude de départ [Compendium.pf2e.conditionitems.fuG8dgthlDWfWjIA]{Indifférente} envers les mitflits.</p>"
                },
                "KLbVPH1j8KmVgQEy": {
                    "name": "Sorts primordiaux innés"
                },
                "KPfQHBfNzT4tVt5Z": {
                    "name": "Déplacement caché",
                    "description": "<p>Si Gwibble commence son tour en étant @UUID[Compendium.pf2e.conditionitems.Item.VRSef5y1LmL2Hkjf]{non détecté} ou @UUID[Compendium.pf2e.conditionitems.Item.iU0fEDdBp3rXpTMC]{Caché} aux yeux d'une créature, celle-ci se trouve @UUID[Compendium.pf2e.conditionitems.Item.AJh5ex99aV6VTggg]{Prise au dépourvu} face aux attaques de Gwibble jusqu'à la fin du tour de ce dernier.</p>"
                },
                "QeN7G8z5SfDJxQR5": {
                    "name": "Colère vengeresse",
                    "description": "<p>Tant qu'il n'est pas @UUID[Compendium.pf2e.conditionitems.Item.TBSHQspnbcqxsmjL]{Effrayé}, un mitflit obtient un bonus de statut de +2 à ses jets de dégâts contre une créature qui l'a blessé ou tourmenté.</p>"
                },
                "WRsx5WoTqS5niML5": {
                    "name": "Flèchette"
                },
                "aLdtWpSNTemhQOqj": {
                    "name": "Communication avec les animaux (À volonté, arthropodes uniquement)"
                }
            }
        },
        "Zombie Brute (PFS 1-18)": {
            "name": "Brute zombie (PFS 1-18)",
            "description": "<p>Des améliorations nécromantiques ont conféré à ce zombie une taille et une puissance impressionnantes.</p>\n<hr />\n<p>Le seul désir d'un zombie est de consommer les vivants. Dépourvus d'intelligence et annonciateurs de mort, les zombies ne s'arrêtent que lorsqu'ils sont détruits. Les nécromanciens créent le plus souvent ces morts-vivants dénués d'intelligence pour les utiliser comme des serviteurs obéissants et remplaçables. Livré à lui-même, un zombie ne cherche qu'à consommer les vivants, ne s'arrêtant que lorsque son corps en décomposition ne peut plus tenir ensemble.</p>",
            "hpdetails": "Guérison du vide",
            "items": {
                "9j9kz8bv8i4ae8b7": {
                    "name": "Ralenti",
                    "description": "<p>Vous disposez de moins d'actions. L'état Ralenti est toujours accompagné d'une valeur. Quand vous regagnez des actions au début de votre tour, vous réduisez la quantité d'actions que vous gagnez de la valeur de votre état ralenti. Dans la mesure où l'état ralenti produit son effet au début de votre tour, vous ne perdez pas immédiatement des actions si vous gagnez cet état lors de votre tour.</p>"
                },
                "IKKlqoLTFtO3pbQV": {
                    "name": "Aura de pourrissement",
                    "description": "<p>3 m. Le zombie est entouré d'une aura de pourrissement et de maladie qui fait puruler les blessures. Toute créature vivante qui débute son tour dans un rayon de 3 m autour du zombie et ne possède pas son maximum de points de vie subit [[/r 1d6]] dégâts causés par ses blessures purulentes.</p>\n<p>Une créature qui reçoit un coup critique d'un zombie subit également ces dégâts immédiatement.</p>"
                },
                "Is4V63biDtNBVpi2": {
                    "name": "Bousculade améliorée 1,5 m"
                },
                "TtcFIJZjrZ4Vaaml": {
                    "name": "Lent",
                    "description": "<p>Un zombie est constamment @UUID[Compendium.pf2e.conditionitems.Item.xYTAsEpcJE1Ccni3]{Ralenti 1} et ne peut pas utiliser de réactions.</p>"
                },
                "wdsdNrRHG7tMUw5P": {
                    "name": "Poing"
                }
            }
        },
        "Mitflit Sneak": {
            "name": "Mitflit furtif",
            "items": {
                "FMZgP4t3cBP8u9fd": {
                    "name": "Communication avec les animaux (À volonté, arthropodes uniquement)"
                },
                "IsaS7Bb4ys9mYFfb": {
                    "name": "Colère vengeresse",
                    "description": "<p>Tant qu'il n'est pas @UUID[Compendium.pf2e.conditionitems.Item.TBSHQspnbcqxsmjL]{Effrayé}, un mitflit obtient un bonus de statut de +2 à ses jets de dégâts contre une créature qui l'a blessé ou tourmenté.</p>"
                },
                "RzgQX2riahuZzh5A": {
                    "name": "Empathie avec la vermine",
                    "description": "<p>Les mitflits peuvent utiliser Diplomatie pour utiliser @UUID[Compendium.pf2e.actionspf2e.Item.OX4fy22hQgUHDr0q]{Faire bonne impression} et @UUID[Compendium.pf2e.actionspf2e.Item.DCb62iCBrJXy0Ik6]{Solliciter} pour demander quelque chose à des arthropodes (insectes, araignées, scorpions, crabes et d'autres créatures invertébrées similaires). La plupart des arthropodes ont une attitude de départ [Compendium.pf2e.conditionitems.fuG8dgthlDWfWjIA]{Indifférente} envers les mitflits.</p>"
                },
                "WVuPpJDbtKtMZeL8": {
                    "name": "Épee courte"
                },
                "jI6lvoLrE6ira9YV": {
                    "name": "Sorts primordiaux innés"
                },
                "oJdTHxqefZ2YPRM6": {
                    "description": "<p>Le venin de vipère est un moyen simple, mais efficace d'améliorer une arme.</p>\n<hr />\n<p><strong>Activation</strong> <span class=\"action-glyph\">2</span> (manipulation)</p>\n<p><strong>Jet de sauvegarde</strong> @Check[type:fortitude|dc:18]</p>\n<p><strong>Durée maximale</strong> 3 rounds </p>\n<p><strong>Stade 1</strong> @Damage[1d8[poison]]{1d8 dégâts de poison} (1 round)</p>\n<p><strong>Stade 2</strong> @Damage[1d10[poison]]{1d10 dégâts de poison} (1 round)</p>\n<p><strong>Stade 3</strong> @Damage[2d6[poison]]{2d6 dégâts de poison} (1 round)</p>"
                },
                "pNzn0kiNztL0hRwI": {
                    "skillVariants": {
                        "0": {
                            "label": "+10 avec les arthropodes"
                        }
                    }
                },
                "rLEFd343PZsW7Xub": {
                    "name": "Auto-dénigrement",
                    "description": "<p>L'auto-dénigrement d'un mitflit fait qu'il est facile de l'influencer. Il subit une pénalité de -4 à son DD de Volonté sur les tests pour le @UUID[Compendium.pf2e.actionspf2e.Item.tHCqgwjtQtzNqVvd]{Contraindre}, le @UUID[Compendium.pf2e.actionspf2e.Item.2u915NdUyQan6uKF]{Démoraliser}, lui @UUID[Compendium.pf2e.actionspf2e.Item.OX4fy22hQgUHDr0q]{Faire bonne impression} et le @UUID[Compendium.pf2e.actionspf2e.Item.DCb62iCBrJXy0Ik6]{Solliciter}.</p>"
                },
                "uqKcNcrdx5V0C1kT": {
                    "name": "Flèchettes"
                },
                "zEDMY9IolDI9VLmb": {
                    "description": "<p>Un mitflit furtif inflige 1d6 dégâts de précision supplémentaires aux créatures @UUID[Compendium.pf2e.conditionitems.Item.AJh5ex99aV6VTggg]{Prises au dépourvu}</p>"
                }
            }
        },
        "Charlatan": {
            "name": "Charlatan",
            "items": {
                "5rbJllAaFadELdsH": {
                    "name": "Attaque sournoise",
                    "description": "<p>Le charlatan inflige 1d6 dégâts de précision supplémentaires à toutes les créatures @UUID[Compendium.pf2e.conditionitems.Item.AJh5ex99aV6VTggg]{Prises au dépourvu}.</p>"
                },
                "8jDOHGURbXAFXYWB": {
                    "name": "Connaissance"
                },
                "Aj3kqPLewFASeq17": {
                    "description": "<p>Cette petite boîte en bois contient des produits de beauté, de fausses barbes, de la colle à postiche et quelques perruques simples. Vous avez généralement besoin d'un kit de déguisement pour créer un déguisement afin de vous faire passer pour quelqu'un à l'aide de la compétence Duperie. Si vous avez fabriqué un grand nombre de déguisements, vous pouvez reconstituer votre stock de cosmétiques avec des cosmétiques de rechange simples. Si vous transportez votre kit de déguisement, vous pouvez le sortir et le ranger durant l'action qui permet de l'utiliser.</p>"
                },
                "F7WTvsqQ4hssu82Q": {
                    "name": "Matériel de voleur",
                    "description": "<p>Vous avez besoin de matériel de voleur pour @UUID[Compendium.pf2e.actionspf2e.Item.2EE4aF4SZpYf0R6H]{Crocheter une serrure} ou @UUID[Compendium.pf2e.actionspf2e.Item.cYdz2grcOcRt4jk6]{Désamorcer un dispositif} utilisant votre compétence de Vol</p>\n<p>Si les outils sont brisés, vous pouvez les réparer en remplaçant les crochets par des @UUID[Compendium.pf2e.equipment-srd.Item.Sw7MBLASN3xK4Y44]{Crochets de remplacement} appropriés. Cela ne nécessite pas que vous utilisiez l'action Réparer. Si vous portez votre matériel, vous pouvez le sortir et le ranger au cours de la même action qui l'utilise.</p>"
                },
                "Gs60cuxSuO4aGEPM": {
                    "name": "Magie déguisée"
                },
                "H78o8WpWgUtwEJRd": {
                    "name": "Polyvalence artistique",
                    "description": "<p>Le charlatan peut utiliser Représentation à la place de Diplomatie pour @UUID[Compendium.pf2e.actionspf2e.Item.OX4fy22hQgUHDr0q]{Faire bonne impression} et à place d'Intimidation pour @UUID[Compendium.pf2e.actionspf2e.Item.2u915NdUyQan6uKF]{Démoraliser}. Il peut également utiliser une Représentation d'interprétation théâtrale au lieu de Duperie pour @UUID[Compendium.pf2e.actionspf2e.Item.AJstokjdG6iDjVjE]{Se déguiser}.</p>"
                },
                "JHJaZfuPXV8p9ear": {
                    "name": "Manipulation télékinésique"
                },
                "JfqPfYYwGRgZQh24": {
                    "name": "Hymne de courage"
                },
                "KozDvvxQAGRHCcmn": {
                    "name": "Sorts occultes spontanés"
                },
                "VVYLIH7xMm29ggr8": {
                    "name": "Épee courte"
                },
                "bQ02zxZIealhLBFU": {
                    "name": "Sbire fantasmagorique"
                },
                "bt3SCEzlMRTkO8nV": {
                    "name": "Luth"
                },
                "yU4HPeHYZN7vnoqA": {
                    "name": "Matraque"
                },
                "yoDLELLlBHguOv54": {
                    "name": "Sorts de composition de barde"
                }
            }
        }
    },
    "mapping": {
        "description": "system.details.publicNotes",
        "gm": "system.details.privateNotes",
        "blurb": "system.details.blurb",
        "cadetails": "system.attributes.ac.details",
        "hpdetails": "system.attributes.hp.details",
        "languages": "system.details.languages.details",
        "perception": "system.perception.details",
        "saves": "system.attributes.allSaves.value",
        "speeds": "system.attributes.speed.details",
        "desc (hazard)": "system.details.description",
        "disable": "system.details.disable",
        "reset": "system.details.reset",
        "routine": "system.details.routine",
        "stealth": "system.attributes.stealth.details",
        "target": "system.target.value",
        "items": {
            "path": "items",
            "converter": "translateActorItems"
        }
    }
}